<?xml version="1.0" encoding="UTF-8" standalone="no"?>
<svg width="65.3521mm" height="22.4896mm"
 viewBox="0 0 247 85"
 xmlns="http://www.w3.org/2000/svg" xmlns:xlink="http://www.w3.org/1999/xlink"  version="1.2" baseProfile="tiny">
<title>Qt SVG Document</title>
<desc>Generated with Qt</desc>
<defs>
</defs>
<g fill="none" stroke="black" stroke-width="1" fill-rule="evenodd" stroke-linecap="square" stroke-linejoin="bevel" >

<g fill="none" stroke="#000000" stroke-opacity="1" stroke-width="1" stroke-linecap="square" stroke-linejoin="bevel" transform="matrix(1,0,0,1,0,0)"
font-family="Noto Sans" font-size="13.3333" font-weight="400" font-style="normal" 
>
</g>

<g fill="none" stroke="#000000" stroke-opacity="1" stroke-width="1" stroke-linecap="square" stroke-linejoin="bevel" transform="matrix(1,0,0,1,0,0)"
font-family="Noto Sans" font-size="13.3333" font-weight="400" font-style="normal" 
>
</g>

<g fill="none" stroke="#000000" stroke-opacity="1" stroke-width="1" stroke-linecap="square" stroke-linejoin="bevel" transform="matrix(0.977011,0,0,0.977011,562.759,322.414)"
font-family="Noto Sans" font-size="13.3333" font-weight="400" font-style="normal" 
>
</g>

<g fill="#ffffff" fill-opacity="1" stroke="none" transform="matrix(0.977011,0,0,0.977011,562.759,322.414)"
font-family="Noto Sans" font-size="13.3333" font-weight="400" font-style="normal" 
>
<rect x="-576" y="-330" width="249" height="87"/>
</g>

<g fill="none" stroke="#000000" stroke-opacity="1" stroke-width="1" stroke-linecap="square" stroke-linejoin="bevel" transform="matrix(0.977011,0,0,0.977011,562.759,322.414)"
font-family="Noto Sans" font-size="13.3333" font-weight="400" font-style="normal" 
>
</g>

<g fill="none" stroke="#000000" stroke-opacity="1" stroke-width="1" stroke-linecap="square" stroke-linejoin="bevel" transform="matrix(0.977011,0,0,0.977011,0.977011,0.977011)"
font-family="Noto Sans" font-size="13.3333" font-weight="400" font-style="normal" 
>
</g>

<g fill="#ffffc0" fill-opacity="1" stroke="#990000" stroke-opacity="1" stroke-width="1" stroke-linecap="square" stroke-linejoin="bevel" transform="matrix(0.977011,0,0,0.977011,0.977011,0.977011)"
font-family="Noto Sans" font-size="13.3333" font-weight="400" font-style="normal" 
>
<rect vector-effect="non-scaling-stroke" x="0" y="21" width="226" height="64"/>
</g>

<g fill="#ffffc0" fill-opacity="1" stroke="#990000" stroke-opacity="1" stroke-dasharray="1,2" stroke-dashoffset="0" stroke-width="1" stroke-linecap="square" stroke-linejoin="bevel" transform="matrix(0.977011,0,0,0.977011,0.977011,0.977011)"
font-family="Noto Sans" font-size="13.3333" font-weight="400" font-style="normal" 
>
<rect vector-effect="non-scaling-stroke" x="205" y="0" width="42" height="26"/>
</g>

<g fill="#ffffc0" fill-opacity="1" stroke="#000000" stroke-opacity="1" stroke-width="1" stroke-linecap="square" stroke-linejoin="bevel" transform="matrix(0.977011,0,0,0.977011,0.977011,0.977011)"
font-family="Fira Code Retina" font-size="13.3333" font-weight="400" font-style="normal" 
>
</g>

<g fill="#ffffc0" fill-opacity="1" stroke="#000000" stroke-opacity="1" stroke-width="1" stroke-linecap="square" stroke-linejoin="bevel" transform="matrix(0.977011,0,0,0.977011,0.977011,0.977011)"
font-family="Fira Code Retina" font-size="13.3333" font-weight="400" font-style="normal" 
>
<text fill="#000000" fill-opacity="1" stroke="none" xml:space="preserve" x="210" y="17" font-family="Fira Code Retina" font-size="13.3333" font-weight="400" font-style="normal" 
 >Type</text>
</g>

<g fill="#ffffc0" fill-opacity="1" stroke="#000000" stroke-opacity="1" stroke-width="1" stroke-linecap="square" stroke-linejoin="bevel" transform="matrix(0.977011,0,0,0.977011,0.977011,0.977011)"
font-family="Fira Code Retina" font-size="13.3333" font-weight="700" font-style="normal" 
>
</g>

<g fill="#ffffc0" fill-opacity="1" stroke="#000000" stroke-opacity="1" stroke-width="1" stroke-linecap="square" stroke-linejoin="bevel" transform="matrix(0.977011,0,0,0.977011,0.977011,0.977011)"
font-family="Fira Code Retina" font-size="13.3333" font-weight="700" font-style="normal" 
>
<text fill="#000000" fill-opacity="1" stroke="none" xml:space="preserve" x="81" y="33" font-family="Fira Code Retina" font-size="13.3333" font-weight="700" font-style="normal" 
 >TreeNode</text>
</g>

<g fill="#ffffc0" fill-opacity="1" stroke="#990000" stroke-opacity="1" stroke-width="1" stroke-linecap="square" stroke-linejoin="bevel" transform="matrix(0.977011,0,0,0.977011,0.977011,0.977011)"
font-family="Fira Code Retina" font-size="13.3333" font-weight="400" font-style="normal" 
>
<polyline fill="none" vector-effect="non-scaling-stroke" points="0,37 226,37 " />
</g>

<g fill="#ffffc0" fill-opacity="1" stroke="#000000" stroke-opacity="1" stroke-width="1" stroke-linecap="square" stroke-linejoin="bevel" transform="matrix(0.977011,0,0,0.977011,0.977011,0.977011)"
font-family="Fira Code Retina" font-size="13.3333" font-weight="400" font-style="normal" 
>
</g>

<g fill="#ffffc0" fill-opacity="1" stroke="#000000" stroke-opacity="1" stroke-width="1" stroke-linecap="square" stroke-linejoin="bevel" transform="matrix(0.977011,0,0,0.977011,0.977011,0.977011)"
font-family="Fira Code Retina" font-size="13.3333" font-weight="400" font-style="normal" 
>
</g>

<g fill="#ffffc0" fill-opacity="1" stroke="#000000" stroke-opacity="1" stroke-width="1" stroke-linecap="square" stroke-linejoin="bevel" transform="matrix(0.977011,0,0,0.977011,0.977011,0.977011)"
font-family="Fira Code Retina" font-size="13.3333" font-weight="400" font-style="normal" 
>
<text fill="#000000" fill-opacity="1" stroke="none" xml:space="preserve" x="5" y="49" font-family="Fira Code Retina" font-size="13.3333" font-weight="400" font-style="normal" 
 >value : Type</text>
</g>

<g fill="#ffffc0" fill-opacity="1" stroke="#000000" stroke-opacity="1" stroke-width="1" stroke-linecap="square" stroke-linejoin="bevel" transform="matrix(0.977011,0,0,0.977011,0.977011,0.977011)"
font-family="Fira Code Retina" font-size="13.3333" font-weight="400" font-style="normal" 
>
</g>

<g fill="#ffffc0" fill-opacity="1" stroke="#000000" stroke-opacity="1" stroke-width="1" stroke-linecap="square" stroke-linejoin="bevel" transform="matrix(0.977011,0,0,0.977011,0.977011,0.977011)"
font-family="Fira Code Retina" font-size="13.3333" font-weight="400" font-style="normal" 
>
<text fill="#000000" fill-opacity="1" stroke="none" xml:space="preserve" x="5" y="65" font-family="Fira Code Retina" font-size="13.3333" font-weight="400" font-style="normal" 
 >left : TreeNode* = nullptr</text>
</g>

<g fill="#ffffc0" fill-opacity="1" stroke="#000000" stroke-opacity="1" stroke-width="1" stroke-linecap="square" stroke-linejoin="bevel" transform="matrix(0.977011,0,0,0.977011,0.977011,0.977011)"
font-family="Fira Code Retina" font-size="13.3333" font-weight="400" font-style="normal" 
>
</g>

<g fill="#ffffc0" fill-opacity="1" stroke="#000000" stroke-opacity="1" stroke-width="1" stroke-linecap="square" stroke-linejoin="bevel" transform="matrix(0.977011,0,0,0.977011,0.977011,0.977011)"
font-family="Fira Code Retina" font-size="13.3333" font-weight="400" font-style="normal" 
>
<text fill="#000000" fill-opacity="1" stroke="none" xml:space="preserve" x="5" y="81" font-family="Fira Code Retina" font-size="13.3333" font-weight="400" font-style="normal" 
 >right : TreeNode* = nullptr</text>
</g>

<g fill="#ffffc0" fill-opacity="1" stroke="#000000" stroke-opacity="1" stroke-width="1" stroke-linecap="square" stroke-linejoin="bevel" transform="matrix(0.977011,0,0,0.977011,0.977011,0.977011)"
font-family="Fira Code Retina" font-size="13.3333" font-weight="400" font-style="normal" 
>
</g>

<g fill="#ffffc0" fill-opacity="1" stroke="#000000" stroke-opacity="1" stroke-width="1" stroke-linecap="square" stroke-linejoin="bevel" transform="matrix(0.977011,0,0,0.977011,0.977011,0.977011)"
font-family="Fira Code Retina" font-size="13.3333" font-weight="400" font-style="normal" 
>
</g>

<g fill="#ffffc0" fill-opacity="1" stroke="#000000" stroke-opacity="1" stroke-width="1" stroke-linecap="square" stroke-linejoin="bevel" transform="matrix(1,0,0,1,0,0)"
font-family="Fira Code Retina" font-size="13.3333" font-weight="400" font-style="normal" 
>
</g>

<g fill="none" stroke="#000000" stroke-opacity="1" stroke-width="1" stroke-linecap="square" stroke-linejoin="bevel" transform="matrix(0.977011,0,0,0.977011,0.977011,0.977011)"
font-family="Noto Sans" font-size="13.3333" font-weight="400" font-style="normal" 
>
</g>

<g fill="none" stroke="#000000" stroke-opacity="1" stroke-width="1" stroke-linecap="square" stroke-linejoin="bevel" transform="matrix(1,0,0,1,0,0)"
font-family="Noto Sans" font-size="13.3333" font-weight="400" font-style="normal" 
>
</g>
</g>
</svg>
