<?xml version="1.0" encoding="UTF-8" standalone="no"?>
<!-- Created with Inkscape (http://www.inkscape.org/) -->

<svg
   width="138mm"
   height="102mm"
   viewBox="0 0 521.57539 385.51157"
   version="1.1"
   id="svg5"
   inkscape:version="1.1.1 (3bf5ae0d25, 2021-09-20)"
   sodipodi:docname="c_header_files.svg"
   inkscape:export-filename="/home/gerald/repos/htl-bulme/src/images/programming/c_header_files.png"
   inkscape:export-xdpi="96"
   inkscape:export-ydpi="96"
   xmlns:inkscape="http://www.inkscape.org/namespaces/inkscape"
   xmlns:sodipodi="http://sodipodi.sourceforge.net/DTD/sodipodi-0.dtd"
   xmlns:xlink="http://www.w3.org/1999/xlink"
   xmlns="http://www.w3.org/2000/svg"
   xmlns:svg="http://www.w3.org/2000/svg">
  <sodipodi:namedview
     id="namedview7"
     pagecolor="#ffffff"
     bordercolor="#666666"
     borderopacity="1.0"
     inkscape:pageshadow="2"
     inkscape:pageopacity="0.0"
     inkscape:pagecheckerboard="0"
     inkscape:document-units="mm"
     showgrid="false"
     inkscape:zoom="0.79375"
     inkscape:cx="400"
     inkscape:cy="228.66142"
     inkscape:window-width="1724"
     inkscape:window-height="1007"
     inkscape:window-x="100"
     inkscape:window-y="0"
     inkscape:window-maximized="0"
     inkscape:current-layer="layer1"
     width="296mm" />
  <defs
     id="defs2">
    <marker
       style="overflow:visible"
       id="Arrow1Lend"
       refX="0"
       refY="0"
       orient="auto"
       inkscape:stockid="Arrow1Lend"
       inkscape:isstock="true">
      <path
         transform="matrix(-0.8,0,0,-0.8,-10,0)"
         style="fill:context-stroke;fill-rule:evenodd;stroke:context-stroke;stroke-width:1pt"
         d="M 0,0 5,-5 -12.5,0 5,5 Z"
         id="path86726" />
    </marker>
    <marker
       style="overflow:visible"
       id="Arrow1Lend-1"
       refX="0"
       refY="0"
       orient="auto"
       inkscape:stockid="Arrow1Lend"
       inkscape:isstock="true">
      <path
         transform="matrix(-0.8,0,0,-0.8,-10,0)"
         style="fill:context-stroke;fill-rule:evenodd;stroke:context-stroke;stroke-width:1pt"
         d="M 0,0 5,-5 -12.5,0 5,5 Z"
         id="path86726-4" />
    </marker>
    <marker
       style="overflow:visible"
       id="Arrow1Lend-4"
       refX="0"
       refY="0"
       orient="auto"
       inkscape:stockid="Arrow1Lend"
       inkscape:isstock="true">
      <path
         transform="matrix(-0.8,0,0,-0.8,-10,0)"
         style="fill:context-stroke;fill-rule:evenodd;stroke:context-stroke;stroke-width:1pt"
         d="M 0,0 5,-5 -12.5,0 5,5 Z"
         id="path86726-2" />
    </marker>
    <marker
       style="overflow:visible"
       id="Arrow1Lend-5"
       refX="0"
       refY="0"
       orient="auto"
       inkscape:stockid="Arrow1Lend"
       inkscape:isstock="true">
      <path
         transform="matrix(-0.8,0,0,-0.8,-10,0)"
         style="fill:context-stroke;fill-rule:evenodd;stroke:context-stroke;stroke-width:1pt"
         d="M 0,0 5,-5 -12.5,0 5,5 Z"
         id="path86726-9" />
    </marker>
    <marker
       style="overflow:visible"
       id="Arrow1Lend-3"
       refX="0"
       refY="0"
       orient="auto"
       inkscape:stockid="Arrow1Lend"
       inkscape:isstock="true">
      <path
         transform="matrix(-0.8,0,0,-0.8,-10,0)"
         style="fill:context-stroke;fill-rule:evenodd;stroke:context-stroke;stroke-width:1pt"
         d="M 0,0 5,-5 -12.5,0 5,5 Z"
         id="path86726-23" />
    </marker>
    <marker
       style="overflow:visible"
       id="Arrow1Lend-14"
       refX="0"
       refY="0"
       orient="auto"
       inkscape:stockid="Arrow1Lend"
       inkscape:isstock="true">
      <path
         transform="matrix(-0.8,0,0,-0.8,-10,0)"
         style="fill:context-stroke;fill-rule:evenodd;stroke:context-stroke;stroke-width:1pt"
         d="M 0,0 5,-5 -12.5,0 5,5 Z"
         id="path86726-8" />
    </marker>
    <marker
       style="overflow:visible"
       id="Arrow1Lend-0"
       refX="0"
       refY="0"
       orient="auto"
       inkscape:stockid="Arrow1Lend"
       inkscape:isstock="true">
      <path
         transform="matrix(-0.8,0,0,-0.8,-10,0)"
         style="fill:context-stroke;fill-rule:evenodd;stroke:context-stroke;stroke-width:1pt"
         d="M 0,0 5,-5 -12.5,0 5,5 Z"
         id="path86726-87" />
    </marker>
    <marker
       style="overflow:visible"
       id="Arrow1Lend-8"
       refX="0"
       refY="0"
       orient="auto"
       inkscape:stockid="Arrow1Lend"
       inkscape:isstock="true">
      <path
         transform="matrix(-0.8,0,0,-0.8,-10,0)"
         style="fill:context-stroke;fill-rule:evenodd;stroke:context-stroke;stroke-width:1pt"
         d="M 0,0 5,-5 -12.5,0 5,5 Z"
         id="path86726-95" />
    </marker>
    <marker
       style="overflow:visible"
       id="Arrow1Lend-8-9"
       refX="0"
       refY="0"
       orient="auto"
       inkscape:stockid="Arrow1Lend"
       inkscape:isstock="true">
      <path
         transform="matrix(-0.8,0,0,-0.8,-10,0)"
         style="fill:context-stroke;fill-rule:evenodd;stroke:context-stroke;stroke-width:1pt"
         d="M 0,0 5,-5 -12.5,0 5,5 Z"
         id="path86726-95-5" />
    </marker>
    <marker
       style="overflow:visible"
       id="Arrow1Lend-8-3"
       refX="0"
       refY="0"
       orient="auto"
       inkscape:stockid="Arrow1Lend"
       inkscape:isstock="true">
      <path
         transform="matrix(-0.8,0,0,-0.8,-10,0)"
         style="fill:context-stroke;fill-rule:evenodd;stroke:context-stroke;stroke-width:1pt"
         d="M 0,0 5,-5 -12.5,0 5,5 Z"
         id="path86726-95-7" />
    </marker>
    <marker
       style="overflow:visible"
       id="Arrow1Lend-2"
       refX="0"
       refY="0"
       orient="auto"
       inkscape:stockid="Arrow1Lend"
       inkscape:isstock="true">
      <path
         transform="matrix(-0.8,0,0,-0.8,-10,0)"
         style="fill:context-stroke;fill-rule:evenodd;stroke:context-stroke;stroke-width:1pt"
         d="M 0,0 5,-5 -12.5,0 5,5 Z"
         id="path86726-3" />
    </marker>
  </defs>
  <g
     inkscape:label="Layer 1"
     inkscape:groupmode="layer"
     id="layer1">
    <g
       id="g32660">
      <g
         id="g84450"
         transform="translate(-418.19154,96.665822)">
        <image
           preserveAspectRatio="none"
           inkscape:svg-dpi="96"
           width="64"
           height="64"
           xlink:href="data:image/svg+xml;base64,PHN2ZyBoZWlnaHQ9IjY0IiB3aWR0aD0iNjQiIHhtbG5zPSJodHRwOi8vd3d3LnczLm9yZy8yMDAw L3N2ZyIgeG1sbnM6eGxpbms9Imh0dHA6Ly93d3cudzMub3JnLzE5OTkveGxpbmsiPgogICAgPGRl ZnM+CiAgICAgICAgPGxpbmVhckdyYWRpZW50IGlkPSJiIiBncmFkaWVudFVuaXRzPSJ1c2VyU3Bh Y2VPblVzZSIgeDE9IjM1MiIgeDI9IjM2NiIgeTE9IjEzMzEuMzYiIHkyPSIxMzQ1LjM2Ij4KICAg ICAgICAgICAgPHN0b3Agb2Zmc2V0PSIwIiBzdG9wLWNvbG9yPSIjMDYwNjA2Ii8+CiAgICAgICAg ICAgIDxzdG9wIG9mZnNldD0iMSIgc3RvcC1vcGFjaXR5PSIwIi8+CiAgICAgICAgPC9saW5lYXJH cmFkaWVudD4KICAgICAgICA8bGluZWFyR3JhZGllbnQgaWQ9ImMiIGdyYWRpZW50VHJhbnNmb3Jt PSJ0cmFuc2xhdGUoMjY0IDk4MikiIGdyYWRpZW50VW5pdHM9InVzZXJTcGFjZU9uVXNlIiB4Mj0i MCIgeTE9IjM5Mi4zNiIgeTI9IjMzNi4zNiI+CiAgICAgICAgICAgIDxzdG9wIG9mZnNldD0iMCIg c3RvcC1jb2xvcj0iI2ZmZiIgc3RvcC1vcGFjaXR5PSIwIi8+CiAgICAgICAgICAgIDxzdG9wIG9m ZnNldD0iMSIgc3RvcC1jb2xvcj0iI2ZmZiIgc3RvcC1vcGFjaXR5PSIuMiIvPgogICAgICAgIDwv bGluZWFyR3JhZGllbnQ+CiAgICAgICAgPHBhdGggaWQ9ImEiIGQ9Ik0zMjIgMTM3NS4zNnYtNTho MzBsMTQgMTR2NDRoLTE0eiIvPgogICAgPC9kZWZzPgogICAgPGcgdHJhbnNmb3JtPSJ0cmFuc2xh dGUoLTMxMiAtMTMxNC4zNikiPgogICAgICAgIDx1c2UgZmlsbD0iIzEzYTRmNyIgaGVpZ2h0PSIx MDAlIiB3aWR0aD0iMTAwJSIgeGxpbms6aHJlZj0iI2EiLz4KICAgICAgICA8cGF0aCBkPSJNMzIy IDEzMTguMzZoMzB2LTFoLTMweiIgZmlsbD0iI2ZmZiIgb3BhY2l0eT0iLjUiLz4KICAgICAgICA8 cGF0aCBkPSJNMzIyIDEzNzUuMzZoNDR2LTFoLTQ0eiIgb3BhY2l0eT0iLjI1Ii8+CiAgICA8L2c+ CiAgICA8ZyBmaWxsLXJ1bGU9ImV2ZW5vZGQiPgogICAgICAgIDxwYXRoIGQ9Ik01NCAxN0w0MCAz djE0eiIgb3BhY2l0eT0iLjYiLz4KICAgICAgICA8cGF0aCBkPSJNMzUyIDEzMzEuMzZsMTQgMTR2 LTE0eiIgZmlsbD0idXJsKCNiKSIgb3BhY2l0eT0iLjIiIHRyYW5zZm9ybT0idHJhbnNsYXRlKC0z MTIgLTEzMTQuMzYpIi8+CiAgICA8L2c+CiAgICA8dXNlIGZpbGw9InVybCgjYykiIGhlaWdodD0i MTAwJSIgdHJhbnNmb3JtPSJ0cmFuc2xhdGUoLTMxMiAtMTMxNC4zNikiIHdpZHRoPSIxMDAlIiB4 bGluazpocmVmPSIjYSIvPgogICAgPHBhdGggZD0iTTMyIDIyYTEwIDEwIDAgMCAwLTEwIDEwIDEw IDEwIDAgMCAwIDEwIDEwIDEwIDEwIDAgMCAwIDcuMDY2LTIuOTM0bC0uNzA3LS43MDdBOSA5IDAg MCAxIDMyIDQxYTkgOSAwIDAgMS05LTkgOSA5IDAgMCAxIDktOSA5IDkgMCAwIDEgNi4zNiAyLjY0 bC43MDYtLjcwNkExMCAxMCAwIDAgMCAzMiAyMnoiIGZpbGwtcnVsZT0iZXZlbm9kZCIgb3BhY2l0 eT0iLjciLz4KPC9zdmc+Cg== "
           id="image543-1"
           x="431.02921"
           y="51.000443" />
        <text
           xml:space="preserve"
           style="font-style:normal;font-variant:normal;font-weight:normal;font-stretch:normal;font-size:26.6667px;line-height:1.25;font-family:sans-serif;-inkscape-font-specification:'sans-serif, Normal';font-variant-ligatures:normal;font-variant-caps:normal;font-variant-numeric:normal;font-variant-east-asian:normal;word-spacing:0px;fill:#000000;fill-opacity:1;stroke:none"
           x="420.73587"
           y="141.14597"
           id="text6422-3"><tspan
             sodipodi:role="line"
             id="tspan6420-0"
             x="420.73587"
             y="141.14597"
             dy="0 0 0 0 0"
             dx="0 0 0 0 0">main.c</tspan></text>
      </g>
      <g
         id="g32441">
        <image
           preserveAspectRatio="none"
           inkscape:svg-dpi="96"
           width="64"
           height="64"
           xlink:href="data:image/svg+xml;base64,PHN2ZyBoZWlnaHQ9IjY0IiB3aWR0aD0iNjQiIHhtbG5zPSJodHRwOi8vd3d3LnczLm9yZy8yMDAw L3N2ZyIgeG1sbnM6eGxpbms9Imh0dHA6Ly93d3cudzMub3JnLzE5OTkveGxpbmsiPgogICAgPGRl ZnM+CiAgICAgICAgPGxpbmVhckdyYWRpZW50IGlkPSJiIiBncmFkaWVudFVuaXRzPSJ1c2VyU3Bh Y2VPblVzZSIgeDE9IjQwIiB4Mj0iNTQiIHkxPSIxNyIgeTI9IjMxIj4KICAgICAgICAgICAgPHN0 b3Agb2Zmc2V0PSIwIiBzdG9wLWNvbG9yPSIjMDYwNjA2Ii8+CiAgICAgICAgICAgIDxzdG9wIG9m ZnNldD0iMSIgc3RvcC1vcGFjaXR5PSIwIi8+CiAgICAgICAgPC9saW5lYXJHcmFkaWVudD4KICAg ICAgICA8bGluZWFyR3JhZGllbnQgaWQ9ImMiIGdyYWRpZW50VHJhbnNmb3JtPSJ0cmFuc2xhdGUo MjY0IDEwNjIpIiBncmFkaWVudFVuaXRzPSJ1c2VyU3BhY2VPblVzZSIgeDI9IjAiIHkxPSIzOTIu MzYiIHkyPSIzMzYuMzYiPgogICAgICAgICAgICA8c3RvcCBvZmZzZXQ9IjAiIHN0b3AtY29sb3I9 IiNmZmYiIHN0b3Atb3BhY2l0eT0iMCIvPgogICAgICAgICAgICA8c3RvcCBvZmZzZXQ9IjEiIHN0 b3AtY29sb3I9IiNmZmYiIHN0b3Atb3BhY2l0eT0iLjEiLz4KICAgICAgICA8L2xpbmVhckdyYWRp ZW50PgogICAgICAgIDxwYXRoIGlkPSJhIiBkPSJNMzIyIDE0NTUuMzZ2LTU4aDMwbDE0IDE0djQ0 aC0xNHoiLz4KICAgIDwvZGVmcz4KICAgIDx1c2UgZmlsbD0iI2NmNzRlMCIgaGVpZ2h0PSIxMDAl IiB0cmFuc2Zvcm09InRyYW5zbGF0ZSgtMzEyIC0xMzk0LjM2KSIgd2lkdGg9IjEwMCUiIHhsaW5r OmhyZWY9IiNhIi8+CiAgICA8cGF0aCBkPSJNMTAgNGgzMFYzSDEweiIgZmlsbD0iI2ZmZiIgb3Bh Y2l0eT0iLjUiLz4KICAgIDxwYXRoIGQ9Ik0xMCA2MWg0NHYtMUgxMHoiIG9wYWNpdHk9Ii4yNSIv PgogICAgPHBhdGggZD0iTTU0IDE3TDQwIDN2MTR6IiBmaWxsPSIjZmZmIiBvcGFjaXR5PSIuNSIv PgogICAgPHBhdGggZD0iTTQwIDE3bDE0IDE0VjE3eiIgZmlsbD0idXJsKCNiKSIgZmlsbC1ydWxl PSJldmVub2RkIiBvcGFjaXR5PSIuMiIvPgogICAgPHVzZSBmaWxsPSJ1cmwoI2MpIiBoZWlnaHQ9 IjEwMCUiIHRyYW5zZm9ybT0idHJhbnNsYXRlKC0zMTIgLTEzOTQuMzYpIiB3aWR0aD0iMTAwJSIg eGxpbms6aHJlZj0iI2EiLz4KICAgIDxwYXRoIGQ9Ik0yNyAyMnYyMGgxdi02YTQgNCAwIDEgMSA4 IDB2Nmgxdi02YTUgNSAwIDAgMC01LTUgNSA1IDAgMCAwLTQgMi4wMVYyMnoiIGZpbGw9IiNmZmYi IGZpbGwtcnVsZT0iZXZlbm9kZCIvPgo8L3N2Zz4K "
           id="image337-2-8"
           x="12.837668"
           y="287.66626" />
        <text
           xml:space="preserve"
           style="font-style:normal;font-variant:normal;font-weight:normal;font-stretch:normal;font-size:26.6667px;line-height:1.25;font-family:sans-serif;-inkscape-font-specification:'sans-serif, Normal';font-variant-ligatures:normal;font-variant-caps:normal;font-variant-numeric:normal;font-variant-east-asian:normal;word-spacing:0px;fill:#000000;fill-opacity:1;stroke:none"
           x="21.37101"
           y="377.8118"
           id="text6422-9-19"><tspan
             sodipodi:role="line"
             id="tspan6420-3-8"
             x="21.37101"
             y="377.8118">ui.h</tspan></text>
      </g>
      <g
         id="g32477">
        <image
           preserveAspectRatio="none"
           inkscape:svg-dpi="96"
           width="64"
           height="64"
           xlink:href="data:image/svg+xml;base64,PHN2ZyBoZWlnaHQ9IjY0IiB3aWR0aD0iNjQiIHhtbG5zPSJodHRwOi8vd3d3LnczLm9yZy8yMDAw L3N2ZyIgeG1sbnM6eGxpbms9Imh0dHA6Ly93d3cudzMub3JnLzE5OTkveGxpbmsiPgogICAgPGRl ZnM+CiAgICAgICAgPGxpbmVhckdyYWRpZW50IGlkPSJiIiBncmFkaWVudFVuaXRzPSJ1c2VyU3Bh Y2VPblVzZSIgeDE9IjQwIiB4Mj0iNTQiIHkxPSIxNyIgeTI9IjMxIj4KICAgICAgICAgICAgPHN0 b3Agb2Zmc2V0PSIwIiBzdG9wLWNvbG9yPSIjMDYwNjA2Ii8+CiAgICAgICAgICAgIDxzdG9wIG9m ZnNldD0iMSIgc3RvcC1vcGFjaXR5PSIwIi8+CiAgICAgICAgPC9saW5lYXJHcmFkaWVudD4KICAg ICAgICA8bGluZWFyR3JhZGllbnQgaWQ9ImMiIGdyYWRpZW50VHJhbnNmb3JtPSJ0cmFuc2xhdGUo MjY0IDEwNjIpIiBncmFkaWVudFVuaXRzPSJ1c2VyU3BhY2VPblVzZSIgeDI9IjAiIHkxPSIzOTIu MzYiIHkyPSIzMzYuMzYiPgogICAgICAgICAgICA8c3RvcCBvZmZzZXQ9IjAiIHN0b3AtY29sb3I9 IiNmZmYiIHN0b3Atb3BhY2l0eT0iMCIvPgogICAgICAgICAgICA8c3RvcCBvZmZzZXQ9IjEiIHN0 b3AtY29sb3I9IiNmZmYiIHN0b3Atb3BhY2l0eT0iLjEiLz4KICAgICAgICA8L2xpbmVhckdyYWRp ZW50PgogICAgICAgIDxwYXRoIGlkPSJhIiBkPSJNMzIyIDE0NTUuMzZ2LTU4aDMwbDE0IDE0djQ0 aC0xNHoiLz4KICAgIDwvZGVmcz4KICAgIDx1c2UgZmlsbD0iI2NmNzRlMCIgaGVpZ2h0PSIxMDAl IiB0cmFuc2Zvcm09InRyYW5zbGF0ZSgtMzEyIC0xMzk0LjM2KSIgd2lkdGg9IjEwMCUiIHhsaW5r OmhyZWY9IiNhIi8+CiAgICA8cGF0aCBkPSJNMTAgNGgzMFYzSDEweiIgZmlsbD0iI2ZmZiIgb3Bh Y2l0eT0iLjUiLz4KICAgIDxwYXRoIGQ9Ik0xMCA2MWg0NHYtMUgxMHoiIG9wYWNpdHk9Ii4yNSIv PgogICAgPHBhdGggZD0iTTU0IDE3TDQwIDN2MTR6IiBmaWxsPSIjZmZmIiBvcGFjaXR5PSIuNSIv PgogICAgPHBhdGggZD0iTTQwIDE3bDE0IDE0VjE3eiIgZmlsbD0idXJsKCNiKSIgZmlsbC1ydWxl PSJldmVub2RkIiBvcGFjaXR5PSIuMiIvPgogICAgPHVzZSBmaWxsPSJ1cmwoI2MpIiBoZWlnaHQ9 IjEwMCUiIHRyYW5zZm9ybT0idHJhbnNsYXRlKC0zMTIgLTEzOTQuMzYpIiB3aWR0aD0iMTAwJSIg eGxpbms6aHJlZj0iI2EiLz4KICAgIDxwYXRoIGQ9Ik0yNyAyMnYyMGgxdi02YTQgNCAwIDEgMSA4 IDB2Nmgxdi02YTUgNSAwIDAgMC01LTUgNSA1IDAgMCAwLTQgMi4wMVYyMnoiIGZpbGw9IiNmZmYi IGZpbGwtcnVsZT0iZXZlbm9kZCIvPgo8L3N2Zz4K "
           id="image337-2-7"
           x="134.58943"
           y="287.66626" />
        <text
           xml:space="preserve"
           style="font-style:normal;font-variant:normal;font-weight:normal;font-stretch:normal;font-size:26.6667px;line-height:1.25;font-family:sans-serif;-inkscape-font-specification:'sans-serif, Normal';font-variant-ligatures:normal;font-variant-caps:normal;font-variant-numeric:normal;font-variant-east-asian:normal;word-spacing:0px;fill:#000000;fill-opacity:1;stroke:none"
           x="143.12277"
           y="377.8118"
           id="text6422-9-3"><tspan
             sodipodi:role="line"
             id="tspan6420-3-55"
             x="143.12277"
             y="377.8118">ui.h</tspan></text>
      </g>
      <g
         id="g32401">
        <image
           preserveAspectRatio="none"
           inkscape:svg-dpi="96"
           width="64"
           height="64"
           xlink:href="data:image/svg+xml;base64,PHN2ZyBoZWlnaHQ9IjY0IiB3aWR0aD0iNjQiIHhtbG5zPSJodHRwOi8vd3d3LnczLm9yZy8yMDAw L3N2ZyIgeG1sbnM6eGxpbms9Imh0dHA6Ly93d3cudzMub3JnLzE5OTkveGxpbmsiPgogICAgPGRl ZnM+CiAgICAgICAgPGxpbmVhckdyYWRpZW50IGlkPSJiIiBncmFkaWVudFVuaXRzPSJ1c2VyU3Bh Y2VPblVzZSIgeDE9IjM1MiIgeDI9IjM2NiIgeTE9IjEzMzEuMzYiIHkyPSIxMzQ1LjM2Ij4KICAg ICAgICAgICAgPHN0b3Agb2Zmc2V0PSIwIiBzdG9wLWNvbG9yPSIjMDYwNjA2Ii8+CiAgICAgICAg ICAgIDxzdG9wIG9mZnNldD0iMSIgc3RvcC1vcGFjaXR5PSIwIi8+CiAgICAgICAgPC9saW5lYXJH cmFkaWVudD4KICAgICAgICA8bGluZWFyR3JhZGllbnQgaWQ9ImMiIGdyYWRpZW50VHJhbnNmb3Jt PSJ0cmFuc2xhdGUoMjY0IDk4MikiIGdyYWRpZW50VW5pdHM9InVzZXJTcGFjZU9uVXNlIiB4Mj0i MCIgeTE9IjM5Mi4zNiIgeTI9IjMzNi4zNiI+CiAgICAgICAgICAgIDxzdG9wIG9mZnNldD0iMCIg c3RvcC1jb2xvcj0iI2ZmZiIgc3RvcC1vcGFjaXR5PSIwIi8+CiAgICAgICAgICAgIDxzdG9wIG9m ZnNldD0iMSIgc3RvcC1jb2xvcj0iI2ZmZiIgc3RvcC1vcGFjaXR5PSIuMiIvPgogICAgICAgIDwv bGluZWFyR3JhZGllbnQ+CiAgICAgICAgPHBhdGggaWQ9ImEiIGQ9Ik0zMjIgMTM3NS4zNnYtNTho MzBsMTQgMTR2NDRoLTE0eiIvPgogICAgPC9kZWZzPgogICAgPGcgdHJhbnNmb3JtPSJ0cmFuc2xh dGUoLTMxMiAtMTMxNC4zNikiPgogICAgICAgIDx1c2UgZmlsbD0iIzEzYTRmNyIgaGVpZ2h0PSIx MDAlIiB3aWR0aD0iMTAwJSIgeGxpbms6aHJlZj0iI2EiLz4KICAgICAgICA8cGF0aCBkPSJNMzIy IDEzMTguMzZoMzB2LTFoLTMweiIgZmlsbD0iI2ZmZiIgb3BhY2l0eT0iLjUiLz4KICAgICAgICA8 cGF0aCBkPSJNMzIyIDEzNzUuMzZoNDR2LTFoLTQ0eiIgb3BhY2l0eT0iLjI1Ii8+CiAgICA8L2c+ CiAgICA8ZyBmaWxsLXJ1bGU9ImV2ZW5vZGQiPgogICAgICAgIDxwYXRoIGQ9Ik01NCAxN0w0MCAz djE0eiIgb3BhY2l0eT0iLjYiLz4KICAgICAgICA8cGF0aCBkPSJNMzUyIDEzMzEuMzZsMTQgMTR2 LTE0eiIgZmlsbD0idXJsKCNiKSIgb3BhY2l0eT0iLjIiIHRyYW5zZm9ybT0idHJhbnNsYXRlKC0z MTIgLTEzMTQuMzYpIi8+CiAgICA8L2c+CiAgICA8dXNlIGZpbGw9InVybCgjYykiIGhlaWdodD0i MTAwJSIgdHJhbnNmb3JtPSJ0cmFuc2xhdGUoLTMxMiAtMTMxNC4zNikiIHdpZHRoPSIxMDAlIiB4 bGluazpocmVmPSIjYSIvPgogICAgPHBhdGggZD0iTTMyIDIyYTEwIDEwIDAgMCAwLTEwIDEwIDEw IDEwIDAgMCAwIDEwIDEwIDEwIDEwIDAgMCAwIDcuMDY2LTIuOTM0bC0uNzA3LS43MDdBOSA5IDAg MCAxIDMyIDQxYTkgOSAwIDAgMS05LTkgOSA5IDAgMCAxIDktOSA5IDkgMCAwIDEgNi4zNiAyLjY0 bC43MDYtLjcwNkExMCAxMCAwIDAgMCAzMiAyMnoiIGZpbGwtcnVsZT0iZXZlbm9kZCIgb3BhY2l0 eT0iLjciLz4KPC9zdmc+Cg== "
           id="image543-6"
           x="134.58945"
           y="147.66626" />
        <text
           xml:space="preserve"
           style="font-style:normal;font-variant:normal;font-weight:normal;font-stretch:normal;font-size:26.6667px;line-height:1.25;font-family:sans-serif;-inkscape-font-specification:'sans-serif, Normal';font-variant-ligatures:normal;font-variant-caps:normal;font-variant-numeric:normal;font-variant-east-asian:normal;word-spacing:0px;fill:#000000;fill-opacity:1;stroke:none"
           x="144.32278"
           y="237.81178"
           id="text6422-2"><tspan
             sodipodi:role="line"
             id="tspan6420-8"
             x="144.32278"
             y="237.81178"
             dy="0 0 0"
             dx="0 0 0">ui.c</tspan></text>
      </g>
      <g
         id="g32549">
        <image
           preserveAspectRatio="none"
           inkscape:svg-dpi="96"
           width="64"
           height="64"
           xlink:href="data:image/svg+xml;base64,PHN2ZyBoZWlnaHQ9IjY0IiB3aWR0aD0iNjQiIHhtbG5zPSJodHRwOi8vd3d3LnczLm9yZy8yMDAw L3N2ZyIgeG1sbnM6eGxpbms9Imh0dHA6Ly93d3cudzMub3JnLzE5OTkveGxpbmsiPgogICAgPGRl ZnM+CiAgICAgICAgPGxpbmVhckdyYWRpZW50IGlkPSJiIiBncmFkaWVudFVuaXRzPSJ1c2VyU3Bh Y2VPblVzZSIgeDE9IjQwIiB4Mj0iNTQiIHkxPSIxNyIgeTI9IjMxIj4KICAgICAgICAgICAgPHN0 b3Agb2Zmc2V0PSIwIiBzdG9wLWNvbG9yPSIjMDYwNjA2Ii8+CiAgICAgICAgICAgIDxzdG9wIG9m ZnNldD0iMSIgc3RvcC1vcGFjaXR5PSIwIi8+CiAgICAgICAgPC9saW5lYXJHcmFkaWVudD4KICAg ICAgICA8bGluZWFyR3JhZGllbnQgaWQ9ImMiIGdyYWRpZW50VHJhbnNmb3JtPSJ0cmFuc2xhdGUo MjY0IDEwNjIpIiBncmFkaWVudFVuaXRzPSJ1c2VyU3BhY2VPblVzZSIgeDI9IjAiIHkxPSIzOTIu MzYiIHkyPSIzMzYuMzYiPgogICAgICAgICAgICA8c3RvcCBvZmZzZXQ9IjAiIHN0b3AtY29sb3I9 IiNmZmYiIHN0b3Atb3BhY2l0eT0iMCIvPgogICAgICAgICAgICA8c3RvcCBvZmZzZXQ9IjEiIHN0 b3AtY29sb3I9IiNmZmYiIHN0b3Atb3BhY2l0eT0iLjEiLz4KICAgICAgICA8L2xpbmVhckdyYWRp ZW50PgogICAgICAgIDxwYXRoIGlkPSJhIiBkPSJNMzIyIDE0NTUuMzZ2LTU4aDMwbDE0IDE0djQ0 aC0xNHoiLz4KICAgIDwvZGVmcz4KICAgIDx1c2UgZmlsbD0iI2NmNzRlMCIgaGVpZ2h0PSIxMDAl IiB0cmFuc2Zvcm09InRyYW5zbGF0ZSgtMzEyIC0xMzk0LjM2KSIgd2lkdGg9IjEwMCUiIHhsaW5r OmhyZWY9IiNhIi8+CiAgICA8cGF0aCBkPSJNMTAgNGgzMFYzSDEweiIgZmlsbD0iI2ZmZiIgb3Bh Y2l0eT0iLjUiLz4KICAgIDxwYXRoIGQ9Ik0xMCA2MWg0NHYtMUgxMHoiIG9wYWNpdHk9Ii4yNSIv PgogICAgPHBhdGggZD0iTTU0IDE3TDQwIDN2MTR6IiBmaWxsPSIjZmZmIiBvcGFjaXR5PSIuNSIv PgogICAgPHBhdGggZD0iTTQwIDE3bDE0IDE0VjE3eiIgZmlsbD0idXJsKCNiKSIgZmlsbC1ydWxl PSJldmVub2RkIiBvcGFjaXR5PSIuMiIvPgogICAgPHVzZSBmaWxsPSJ1cmwoI2MpIiBoZWlnaHQ9 IjEwMCUiIHRyYW5zZm9ybT0idHJhbnNsYXRlKC0zMTIgLTEzOTQuMzYpIiB3aWR0aD0iMTAwJSIg eGxpbms6aHJlZj0iI2EiLz4KICAgIDxwYXRoIGQ9Ik0yNyAyMnYyMGgxdi02YTQgNCAwIDEgMSA4 IDB2Nmgxdi02YTUgNSAwIDAgMC01LTUgNSA1IDAgMCAwLTQgMi4wMVYyMnoiIGZpbGw9IiNmZmYi IGZpbGwtcnVsZT0iZXZlbm9kZCIvPgo8L3N2Zz4K "
           id="image337"
           x="134.58945"
           y="1.6662645" />
        <text
           xml:space="preserve"
           style="font-style:normal;font-variant:normal;font-weight:normal;font-stretch:normal;font-size:26.6667px;line-height:1.25;font-family:sans-serif;-inkscape-font-specification:'sans-serif, Normal';font-variant-ligatures:normal;font-variant-caps:normal;font-variant-numeric:normal;font-variant-east-asian:normal;word-spacing:0px;fill:#000000;fill-opacity:1;stroke:none"
           x="123.26952"
           y="91.81179"
           id="text6422-8"><tspan
             sodipodi:role="line"
             id="tspan6420-05"
             x="123.26952"
             y="91.81179"
             dy="0 0 0 0 0 0"
             dx="0 0 0 0 0 0">array.h</tspan></text>
      </g>
      <g
         id="g32513">
        <image
           preserveAspectRatio="none"
           inkscape:svg-dpi="96"
           width="64"
           height="64"
           xlink:href="data:image/svg+xml;base64,PHN2ZyBoZWlnaHQ9IjY0IiB3aWR0aD0iNjQiIHhtbG5zPSJodHRwOi8vd3d3LnczLm9yZy8yMDAw L3N2ZyIgeG1sbnM6eGxpbms9Imh0dHA6Ly93d3cudzMub3JnLzE5OTkveGxpbmsiPgogICAgPGRl ZnM+CiAgICAgICAgPGxpbmVhckdyYWRpZW50IGlkPSJiIiBncmFkaWVudFVuaXRzPSJ1c2VyU3Bh Y2VPblVzZSIgeDE9IjQwIiB4Mj0iNTQiIHkxPSIxNyIgeTI9IjMxIj4KICAgICAgICAgICAgPHN0 b3Agb2Zmc2V0PSIwIiBzdG9wLWNvbG9yPSIjMDYwNjA2Ii8+CiAgICAgICAgICAgIDxzdG9wIG9m ZnNldD0iMSIgc3RvcC1vcGFjaXR5PSIwIi8+CiAgICAgICAgPC9saW5lYXJHcmFkaWVudD4KICAg ICAgICA8bGluZWFyR3JhZGllbnQgaWQ9ImMiIGdyYWRpZW50VHJhbnNmb3JtPSJ0cmFuc2xhdGUo MjY0IDEwNjIpIiBncmFkaWVudFVuaXRzPSJ1c2VyU3BhY2VPblVzZSIgeDI9IjAiIHkxPSIzOTIu MzYiIHkyPSIzMzYuMzYiPgogICAgICAgICAgICA8c3RvcCBvZmZzZXQ9IjAiIHN0b3AtY29sb3I9 IiNmZmYiIHN0b3Atb3BhY2l0eT0iMCIvPgogICAgICAgICAgICA8c3RvcCBvZmZzZXQ9IjEiIHN0 b3AtY29sb3I9IiNmZmYiIHN0b3Atb3BhY2l0eT0iLjEiLz4KICAgICAgICA8L2xpbmVhckdyYWRp ZW50PgogICAgICAgIDxwYXRoIGlkPSJhIiBkPSJNMzIyIDE0NTUuMzZ2LTU4aDMwbDE0IDE0djQ0 aC0xNHoiLz4KICAgIDwvZGVmcz4KICAgIDx1c2UgZmlsbD0iI2NmNzRlMCIgaGVpZ2h0PSIxMDAl IiB0cmFuc2Zvcm09InRyYW5zbGF0ZSgtMzEyIC0xMzk0LjM2KSIgd2lkdGg9IjEwMCUiIHhsaW5r OmhyZWY9IiNhIi8+CiAgICA8cGF0aCBkPSJNMTAgNGgzMFYzSDEweiIgZmlsbD0iI2ZmZiIgb3Bh Y2l0eT0iLjUiLz4KICAgIDxwYXRoIGQ9Ik0xMCA2MWg0NHYtMUgxMHoiIG9wYWNpdHk9Ii4yNSIv PgogICAgPHBhdGggZD0iTTU0IDE3TDQwIDN2MTR6IiBmaWxsPSIjZmZmIiBvcGFjaXR5PSIuNSIv PgogICAgPHBhdGggZD0iTTQwIDE3bDE0IDE0VjE3eiIgZmlsbD0idXJsKCNiKSIgZmlsbC1ydWxl PSJldmVub2RkIiBvcGFjaXR5PSIuMiIvPgogICAgPHVzZSBmaWxsPSJ1cmwoI2MpIiBoZWlnaHQ9 IjEwMCUiIHRyYW5zZm9ybT0idHJhbnNsYXRlKC0zMTIgLTEzOTQuMzYpIiB3aWR0aD0iMTAwJSIg eGxpbms6aHJlZj0iI2EiLz4KICAgIDxwYXRoIGQ9Ik0yNyAyMnYyMGgxdi02YTQgNCAwIDEgMSA4 IDB2Nmgxdi02YTUgNSAwIDAgMC01LTUgNSA1IDAgMCAwLTQgMi4wMVYyMnoiIGZpbGw9IiNmZmYi IGZpbGwtcnVsZT0iZXZlbm9kZCIvPgo8L3N2Zz4K "
           id="image337-4"
           x="12.837665"
           y="3.6662645" />
        <text
           xml:space="preserve"
           style="font-style:normal;font-variant:normal;font-weight:normal;font-stretch:normal;font-size:26.6667px;line-height:1.25;font-family:sans-serif;-inkscape-font-specification:'sans-serif, Normal';font-variant-ligatures:normal;font-variant-caps:normal;font-variant-numeric:normal;font-variant-east-asian:normal;word-spacing:0px;fill:#000000;fill-opacity:1;stroke:none"
           x="1.5177325"
           y="93.81179"
           id="text6422-8-2"><tspan
             sodipodi:role="line"
             id="tspan6420-05-8"
             x="1.5177325"
             y="93.81179"
             dy="0 0 0 0 0 0"
             dx="0 0 0 0 0 0">array.h</tspan></text>
      </g>
      <g
         id="g32361">
        <image
           preserveAspectRatio="none"
           inkscape:svg-dpi="96"
           width="64"
           height="64"
           xlink:href="data:image/svg+xml;base64,PHN2ZyBoZWlnaHQ9IjY0IiB3aWR0aD0iNjQiIHhtbG5zPSJodHRwOi8vd3d3LnczLm9yZy8yMDAw L3N2ZyIgeG1sbnM6eGxpbms9Imh0dHA6Ly93d3cudzMub3JnLzE5OTkveGxpbmsiPgogICAgPGRl ZnM+CiAgICAgICAgPGxpbmVhckdyYWRpZW50IGlkPSJiIiBncmFkaWVudFVuaXRzPSJ1c2VyU3Bh Y2VPblVzZSIgeDE9IjM1MiIgeDI9IjM2NiIgeTE9IjEzMzEuMzYiIHkyPSIxMzQ1LjM2Ij4KICAg ICAgICAgICAgPHN0b3Agb2Zmc2V0PSIwIiBzdG9wLWNvbG9yPSIjMDYwNjA2Ii8+CiAgICAgICAg ICAgIDxzdG9wIG9mZnNldD0iMSIgc3RvcC1vcGFjaXR5PSIwIi8+CiAgICAgICAgPC9saW5lYXJH cmFkaWVudD4KICAgICAgICA8bGluZWFyR3JhZGllbnQgaWQ9ImMiIGdyYWRpZW50VHJhbnNmb3Jt PSJ0cmFuc2xhdGUoMjY0IDk4MikiIGdyYWRpZW50VW5pdHM9InVzZXJTcGFjZU9uVXNlIiB4Mj0i MCIgeTE9IjM5Mi4zNiIgeTI9IjMzNi4zNiI+CiAgICAgICAgICAgIDxzdG9wIG9mZnNldD0iMCIg c3RvcC1jb2xvcj0iI2ZmZiIgc3RvcC1vcGFjaXR5PSIwIi8+CiAgICAgICAgICAgIDxzdG9wIG9m ZnNldD0iMSIgc3RvcC1jb2xvcj0iI2ZmZiIgc3RvcC1vcGFjaXR5PSIuMiIvPgogICAgICAgIDwv bGluZWFyR3JhZGllbnQ+CiAgICAgICAgPHBhdGggaWQ9ImEiIGQ9Ik0zMjIgMTM3NS4zNnYtNTho MzBsMTQgMTR2NDRoLTE0eiIvPgogICAgPC9kZWZzPgogICAgPGcgdHJhbnNmb3JtPSJ0cmFuc2xh dGUoLTMxMiAtMTMxNC4zNikiPgogICAgICAgIDx1c2UgZmlsbD0iIzEzYTRmNyIgaGVpZ2h0PSIx MDAlIiB3aWR0aD0iMTAwJSIgeGxpbms6aHJlZj0iI2EiLz4KICAgICAgICA8cGF0aCBkPSJNMzIy IDEzMTguMzZoMzB2LTFoLTMweiIgZmlsbD0iI2ZmZiIgb3BhY2l0eT0iLjUiLz4KICAgICAgICA8 cGF0aCBkPSJNMzIyIDEzNzUuMzZoNDR2LTFoLTQ0eiIgb3BhY2l0eT0iLjI1Ii8+CiAgICA8L2c+ CiAgICA8ZyBmaWxsLXJ1bGU9ImV2ZW5vZGQiPgogICAgICAgIDxwYXRoIGQ9Ik01NCAxN0w0MCAz djE0eiIgb3BhY2l0eT0iLjYiLz4KICAgICAgICA8cGF0aCBkPSJNMzUyIDEzMzEuMzZsMTQgMTR2 LTE0eiIgZmlsbD0idXJsKCNiKSIgb3BhY2l0eT0iLjIiIHRyYW5zZm9ybT0idHJhbnNsYXRlKC0z MTIgLTEzMTQuMzYpIi8+CiAgICA8L2c+CiAgICA8dXNlIGZpbGw9InVybCgjYykiIGhlaWdodD0i MTAwJSIgdHJhbnNmb3JtPSJ0cmFuc2xhdGUoLTMxMiAtMTMxNC4zNikiIHdpZHRoPSIxMDAlIiB4 bGluazpocmVmPSIjYSIvPgogICAgPHBhdGggZD0iTTMyIDIyYTEwIDEwIDAgMCAwLTEwIDEwIDEw IDEwIDAgMCAwIDEwIDEwIDEwIDEwIDAgMCAwIDcuMDY2LTIuOTM0bC0uNzA3LS43MDdBOSA5IDAg MCAxIDMyIDQxYTkgOSAwIDAgMS05LTkgOSA5IDAgMCAxIDktOSA5IDkgMCAwIDEgNi4zNiAyLjY0 bC43MDYtLjcwNkExMCAxMCAwIDAgMCAzMiAyMnoiIGZpbGwtcnVsZT0iZXZlbm9kZCIgb3BhY2l0 eT0iLjciLz4KPC9zdmc+Cg== "
           id="image543"
           x="248.31458"
           y="147.66626" />
        <text
           xml:space="preserve"
           style="font-style:normal;font-variant:normal;font-weight:normal;font-stretch:normal;font-size:26.6667px;line-height:1.25;font-family:sans-serif;-inkscape-font-specification:'sans-serif, Normal';font-variant-ligatures:normal;font-variant-caps:normal;font-variant-numeric:normal;font-variant-east-asian:normal;word-spacing:0px;fill:#000000;fill-opacity:1;stroke:none"
           x="238.19464"
           y="237.81178"
           id="text6422-5"><tspan
             sodipodi:role="line"
             id="tspan6420-2"
             x="238.19464"
             y="237.81178"
             dy="0 0 0 0 0 0"
             dx="0 0 0 0 0 0">array.c</tspan></text>
      </g>
      <g
         id="g32585">
        <image
           preserveAspectRatio="none"
           inkscape:svg-dpi="96"
           width="64"
           height="64"
           xlink:href="data:image/svg+xml;base64,PHN2ZyBoZWlnaHQ9IjY0IiB3aWR0aD0iNjQiIHhtbG5zPSJodHRwOi8vd3d3LnczLm9yZy8yMDAw L3N2ZyIgeG1sbnM6eGxpbms9Imh0dHA6Ly93d3cudzMub3JnLzE5OTkveGxpbmsiPgogICAgPGRl ZnM+CiAgICAgICAgPGxpbmVhckdyYWRpZW50IGlkPSJiIiBncmFkaWVudFVuaXRzPSJ1c2VyU3Bh Y2VPblVzZSIgeDE9IjQwIiB4Mj0iNTQiIHkxPSIxNyIgeTI9IjMxIj4KICAgICAgICAgICAgPHN0 b3Agb2Zmc2V0PSIwIiBzdG9wLWNvbG9yPSIjMDYwNjA2Ii8+CiAgICAgICAgICAgIDxzdG9wIG9m ZnNldD0iMSIgc3RvcC1vcGFjaXR5PSIwIi8+CiAgICAgICAgPC9saW5lYXJHcmFkaWVudD4KICAg ICAgICA8bGluZWFyR3JhZGllbnQgaWQ9ImMiIGdyYWRpZW50VHJhbnNmb3JtPSJ0cmFuc2xhdGUo MjY0IDEwNjIpIiBncmFkaWVudFVuaXRzPSJ1c2VyU3BhY2VPblVzZSIgeDI9IjAiIHkxPSIzOTIu MzYiIHkyPSIzMzYuMzYiPgogICAgICAgICAgICA8c3RvcCBvZmZzZXQ9IjAiIHN0b3AtY29sb3I9 IiNmZmYiIHN0b3Atb3BhY2l0eT0iMCIvPgogICAgICAgICAgICA8c3RvcCBvZmZzZXQ9IjEiIHN0 b3AtY29sb3I9IiNmZmYiIHN0b3Atb3BhY2l0eT0iLjEiLz4KICAgICAgICA8L2xpbmVhckdyYWRp ZW50PgogICAgICAgIDxwYXRoIGlkPSJhIiBkPSJNMzIyIDE0NTUuMzZ2LTU4aDMwbDE0IDE0djQ0 aC0xNHoiLz4KICAgIDwvZGVmcz4KICAgIDx1c2UgZmlsbD0iI2NmNzRlMCIgaGVpZ2h0PSIxMDAl IiB0cmFuc2Zvcm09InRyYW5zbGF0ZSgtMzEyIC0xMzk0LjM2KSIgd2lkdGg9IjEwMCUiIHhsaW5r OmhyZWY9IiNhIi8+CiAgICA8cGF0aCBkPSJNMTAgNGgzMFYzSDEweiIgZmlsbD0iI2ZmZiIgb3Bh Y2l0eT0iLjUiLz4KICAgIDxwYXRoIGQ9Ik0xMCA2MWg0NHYtMUgxMHoiIG9wYWNpdHk9Ii4yNSIv PgogICAgPHBhdGggZD0iTTU0IDE3TDQwIDN2MTR6IiBmaWxsPSIjZmZmIiBvcGFjaXR5PSIuNSIv PgogICAgPHBhdGggZD0iTTQwIDE3bDE0IDE0VjE3eiIgZmlsbD0idXJsKCNiKSIgZmlsbC1ydWxl PSJldmVub2RkIiBvcGFjaXR5PSIuMiIvPgogICAgPHVzZSBmaWxsPSJ1cmwoI2MpIiBoZWlnaHQ9 IjEwMCUiIHRyYW5zZm9ybT0idHJhbnNsYXRlKC0zMTIgLTEzOTQuMzYpIiB3aWR0aD0iMTAwJSIg eGxpbms6aHJlZj0iI2EiLz4KICAgIDxwYXRoIGQ9Ik0yNyAyMnYyMGgxdi02YTQgNCAwIDEgMSA4 IDB2Nmgxdi02YTUgNSAwIDAgMC01LTUgNSA1IDAgMCAwLTQgMi4wMVYyMnoiIGZpbGw9IiNmZmYi IGZpbGwtcnVsZT0iZXZlbm9kZCIvPgo8L3N2Zz4K "
           id="image337-8"
           x="248.31458"
           y="1.6662645" />
        <text
           xml:space="preserve"
           style="font-style:normal;font-variant:normal;font-weight:normal;font-stretch:normal;font-size:26.6667px;line-height:1.25;font-family:sans-serif;-inkscape-font-specification:'sans-serif, Normal';font-variant-ligatures:normal;font-variant-caps:normal;font-variant-numeric:normal;font-variant-east-asian:normal;word-spacing:0px;fill:#000000;fill-opacity:1;stroke:none"
           x="236.99464"
           y="91.81179"
           id="text6422-6"><tspan
             sodipodi:role="line"
             id="tspan6420-4"
             x="236.99464"
             y="91.81179">array.h</tspan></text>
      </g>
      <g
         id="g84185"
         transform="translate(-297.09365,-241.86029)">
        <image
           preserveAspectRatio="none"
           inkscape:svg-dpi="96"
           width="64"
           height="64"
           xlink:href="data:image/svg+xml;base64,PHN2ZyB3aWR0aD0iNjQiIHhtbG5zPSJodHRwOi8vd3d3LnczLm9yZy8yMDAwL3N2ZyIgdmlld0Jv eD0iMCAwIDY0IDY0IiBoZWlnaHQ9IjY0IiB4bWxuczp4bGluaz0iaHR0cDovL3d3dy53My5vcmcv MTk5OS94bGluayI+CiA8ZGVmcz4KICA8bGluZWFyR3JhZGllbnQgaWQ9ImEiIHkxPSIxNyIgeDE9 IjQwIiB5Mj0iMzEiIGdyYWRpZW50VW5pdHM9InVzZXJTcGFjZU9uVXNlIiB4Mj0iNTQiIGdyYWRp ZW50VHJhbnNmb3JtPSJ0cmFuc2xhdGUoNjE2IDUzMi4zNikiPgogICA8c3RvcCBzdG9wLWNvbG9y PSIjMDYwNjA2Ii8+CiAgIDxzdG9wIG9mZnNldD0iMSIgc3RvcC1vcGFjaXR5PSIwIi8+CiAgPC9s aW5lYXJHcmFkaWVudD4KICA8bGluZWFyR3JhZGllbnQgaWQ9ImIiIHkxPSIzOTIuMzYiIHkyPSIz MzYuMzYiIGdyYWRpZW50VW5pdHM9InVzZXJTcGFjZU9uVXNlIiB4Mj0iMCIgZ3JhZGllbnRUcmFu c2Zvcm09InRyYW5zbGF0ZSg1NjggMjAwKSI+CiAgIDxzdG9wIHN0b3AtY29sb3I9IiNmZmZmZmYi IHN0b3Atb3BhY2l0eT0iMCIvPgogICA8c3RvcCBvZmZzZXQ9IjEiIHN0b3AtY29sb3I9IiNmZmZm ZmYiIHN0b3Atb3BhY2l0eT0iLjIiLz4KICA8L2xpbmVhckdyYWRpZW50PgogIDxwYXRoIGlkPSJj IiBkPSJtNjI2IDU5My4zNnYtNThoMzBsMTQgMTR2NDRoLTE0eiIvPgogPC9kZWZzPgogPGcgdHJh bnNmb3JtPSJ0cmFuc2xhdGUoLTYxNi01MzIuMzYpIj4KICA8ZyBjb2xvci1yZW5kZXJpbmc9ImF1 dG8iIGNvbG9yLWludGVycG9sYXRpb24tZmlsdGVycz0ibGluZWFyUkdCIiBzaGFwZS1yZW5kZXJp bmc9ImF1dG8iIGltYWdlLXJlbmRlcmluZz0iYXV0byIgdGV4dC1yZW5kZXJpbmc9ImF1dG8iIGNv bG9yLWludGVycG9sYXRpb249InNSR0IiIGNvbG9yPSIjMDAwMDAwIj4KICAgPHVzZSBmaWxsPSIj NTU1NTU1IiB4bGluazpocmVmPSIjYyIvPgogICA8ZyB0cmFuc2Zvcm09InNjYWxlKDEtMSkiPgog ICAgPHJlY3Qgb3BhY2l0eT0iLjQiIHg9IjYyNiIgeT0iLTUzNi4zNiIgd2lkdGg9IjMwIiBmaWxs PSIjZmZmZmZmIiBoZWlnaHQ9IjEiLz4KICAgIDxyZWN0IG9wYWNpdHk9Ii4zNSIgeD0iNjI2IiB5 PSItNTkzLjM2IiB3aWR0aD0iNDQiIGhlaWdodD0iMSIvPgogICA8L2c+CiAgIDxwYXRoIG9wYWNp dHk9Ii41IiBmaWxsPSIjZmZmZmZmIiBmaWxsLXJ1bGU9ImV2ZW5vZGQiIGQ9Im02NzAgNTQ5LjM2 bC0xNC0xNHYxNHoiLz4KICA8L2c+CiAgPHBhdGggb3BhY2l0eT0iLjQiIGZpbGw9InVybCgjYSki IGZpbGwtcnVsZT0iZXZlbm9kZCIgZD0ibTY1NiA1NDkuMzZsMTQgMTR2LTE0eiIvPgogIDxnIGNv bG9yLXJlbmRlcmluZz0iYXV0byIgY29sb3ItaW50ZXJwb2xhdGlvbi1maWx0ZXJzPSJsaW5lYXJS R0IiIHNoYXBlLXJlbmRlcmluZz0iYXV0byIgaW1hZ2UtcmVuZGVyaW5nPSJhdXRvIiB0ZXh0LXJl bmRlcmluZz0iYXV0byIgY29sb3ItaW50ZXJwb2xhdGlvbj0ic1JHQiIgY29sb3I9IiMwMDAwMDAi PgogICA8cGF0aCBmaWxsPSIjMzQzNDM0IiBkPSJtNjM2IDU1Ni4zNnYyMmgyNnYtMjJ6bTE4IDFj LjU1MiAwIDEgLjQ0OCAxIDEgMCAuNTUyLS40NDggMS0xIDEtLjU1MiAwLTEtLjQ0OC0xLTEgMC0u NTUyLjQ0OC0xIDEtMW0zIDBjLjU1MiAwIDEgLjQ0OCAxIDEgMCAuNTUyLS40NDggMS0xIDEtLjU1 MiAwLTEtLjQ0OC0xLTEgMC0uNTUyLjQ0OC0xIDEtMW0zIDBjLjU1MiAwIDEgLjQ0OCAxIDEgMCAu NTUyLS40NDggMS0xIDEtLjU1MiAwLTEtLjQ0OC0xLTEgMC0uNTUyLjQ0OC0xIDEtMW0tMjMgM2gy NHYxN2gtMjR6bTExIDJ2OWgydi05em0wIDExdjJoMnYtMnoiLz4KICAgPHBhdGggZmlsbD0iI2Uw ZTBlMCIgZD0ibTYzNSA1NTUuMzZ2MjJoMjZ2LTIyem0xOCAxYy41NTIgMCAxIC40NDggMSAxIDAg LjU1Mi0uNDQ4IDEtMSAxLS41NTIgMC0xLS40NDgtMS0xIDAtLjU1Mi40NDgtMSAxLTFtMyAwYy41 NTIgMCAxIC40NDggMSAxIDAgLjU1Mi0uNDQ4IDEtMSAxLS41NTIgMC0xLS40NDgtMS0xIDAtLjU1 Mi40NDgtMSAxLTFtMyAwYy41NTIgMCAxIC40NDggMSAxIDAgLjU1Mi0uNDQ4IDEtMSAxLS41NTIg MC0xLS40NDgtMS0xIDAtLjU1Mi40NDgtMSAxLTFtLTIzIDNoMjR2MTdoLTI0em0xMSAydjloMnYt OXptMCAxMXYyaDJ2LTJ6Ii8+CiAgPC9nPgogIDx1c2UgZmlsbD0idXJsKCNiKSIgeGxpbms6aHJl Zj0iI2MiLz4KIDwvZz4KPC9zdmc+Cg== "
           id="image99"
           x="713.80908"
           y="389.52655" />
        <text
           xml:space="preserve"
           style="font-style:normal;font-variant:normal;font-weight:normal;font-stretch:normal;font-size:26.6667px;line-height:1.25;font-family:sans-serif;-inkscape-font-specification:'sans-serif, Normal';font-variant-ligatures:normal;font-variant-caps:normal;font-variant-numeric:normal;font-variant-east-asian:normal;word-spacing:0px;fill:#000000;fill-opacity:1;stroke:none"
           x="678.10248"
           y="479.77875"
           id="text6422"><tspan
             sodipodi:role="line"
             id="tspan6420"
             x="678.10248"
             y="479.77875">executable</tspan></text>
      </g>
      <path
         style="fill:none;stroke:#000000;stroke-width:1px;stroke-linecap:butt;stroke-linejoin:miter;stroke-opacity:1;marker-end:url(#Arrow1Lend)"
         d="m 44.83766,108.00852 c 0,32.05078 0,32.05078 0,32.05078"
         id="path85824" />
      <path
         style="fill:none;stroke:#000000;stroke-width:1px;stroke-linecap:butt;stroke-linejoin:miter;stroke-opacity:1;marker-end:url(#Arrow1Lend-8)"
         d="m 44.83766,284.90875 c 0,-32.05078 0,-32.05078 0,-32.05078"
         id="path85824-09" />
      <path
         style="fill:none;stroke:#000000;stroke-width:1px;stroke-linecap:butt;stroke-linejoin:miter;stroke-opacity:1;marker-end:url(#Arrow1Lend-8-3)"
         d="m 166.58944,284.90875 c 0,-32.05078 0,-32.05078 0,-32.05078"
         id="path85824-09-0" />
      <path
         style="fill:none;stroke:#000000;stroke-width:1px;stroke-linecap:butt;stroke-linejoin:miter;stroke-opacity:1;marker-end:url(#Arrow1Lend-4)"
         d="m 280.31457,105.57271 c 0,32.05078 0,32.05078 0,32.05078"
         id="path85824-3" />
      <path
         style="fill:none;stroke:#000000;stroke-width:1px;stroke-linecap:butt;stroke-linejoin:miter;stroke-opacity:1;marker-end:url(#Arrow1Lend-5)"
         d="m 166.58944,109.56081 c 0,32.05078 0,32.05078 0,32.05078"
         id="path85824-0" />
      <path
         style="fill:none;stroke:#000000;stroke-width:1px;stroke-linecap:butt;stroke-linejoin:miter;stroke-opacity:1;marker-end:url(#Arrow1Lend-2)"
         d="m 339.8631,182.52025 c 41.12251,0 41.12251,0 41.12251,0"
         id="path85826-3" />
    </g>
  </g>
</svg>
