<?xml version="1.0" encoding="UTF-8" standalone="no"?>
<!-- Created with Inkscape (http://www.inkscape.org/) -->

<svg
   width="297mm"
   height="120mm"
   viewBox="0 0 297 120"
   version="1.1"
   id="svg5"
   inkscape:version="1.1.2 (0a00cf5339, 2022-02-04)"
   sodipodi:docname="doubly_linked_list.svg"
   inkscape:export-filename="/home/gerald/repos/htl-bulme/src/images/programming/doubly_linked_list.png"
   inkscape:export-xdpi="96"
   inkscape:export-ydpi="96"
   xmlns:inkscape="http://www.inkscape.org/namespaces/inkscape"
   xmlns:sodipodi="http://sodipodi.sourceforge.net/DTD/sodipodi-0.dtd"
   xmlns="http://www.w3.org/2000/svg"
   xmlns:svg="http://www.w3.org/2000/svg">
  <sodipodi:namedview
     id="namedview7"
     pagecolor="#ffffff"
     bordercolor="#666666"
     borderopacity="1.0"
     inkscape:pageshadow="2"
     inkscape:pageopacity="0.0"
     inkscape:pagecheckerboard="0"
     inkscape:document-units="mm"
     showgrid="false"
     height="120mm"
     inkscape:zoom="1.2998791"
     inkscape:rotation="-1"
     inkscape:cx="533.07907"
     inkscape:cy="161.64999"
     inkscape:window-width="2560"
     inkscape:window-height="1367"
     inkscape:window-x="0"
     inkscape:window-y="0"
     inkscape:window-maximized="1"
     inkscape:current-layer="layer1" />
  <defs
     id="defs2">
    <marker
       style="overflow:visible"
       id="marker69623"
       refX="0"
       refY="0"
       orient="auto"
       inkscape:stockid="Arrow1Lstart"
       inkscape:isstock="true">
      <path
         transform="matrix(0.8,0,0,0.8,10,0)"
         style="fill:context-stroke;fill-rule:evenodd;stroke:context-stroke;stroke-width:1pt"
         d="M 0,0 5,-5 -12.5,0 5,5 Z"
         id="path69621" />
    </marker>
    <marker
       style="overflow:visible"
       id="Arrow1Lend"
       refX="0"
       refY="0"
       orient="auto"
       inkscape:stockid="Arrow1Lend"
       inkscape:isstock="true">
      <path
         transform="matrix(-0.8,0,0,-0.8,-10,0)"
         style="fill:context-stroke;fill-rule:evenodd;stroke:context-stroke;stroke-width:1pt"
         d="M 0,0 5,-5 -12.5,0 5,5 Z"
         id="path67056" />
    </marker>
    <marker
       style="overflow:visible"
       id="Tail"
       refX="0"
       refY="0"
       orient="auto"
       inkscape:stockid="Tail"
       inkscape:isstock="true">
      <g
         transform="scale(-1.2)"
         id="g67101">
        <path
           style="fill:none;fill-rule:evenodd;stroke:context-stroke;stroke-width:0.8;stroke-linecap:round"
           d="M -3.8048674,-3.9585227 0.54352094,0"
           id="path67089" />
        <path
           style="fill:none;fill-rule:evenodd;stroke:context-stroke;stroke-width:0.8;stroke-linecap:round"
           d="M -1.2866832,-3.9585227 3.0617053,0"
           id="path67091" />
        <path
           style="fill:none;fill-rule:evenodd;stroke:context-stroke;stroke-width:0.8;stroke-linecap:round"
           d="M 1.3053582,-3.9585227 5.6537466,0"
           id="path67093" />
        <path
           style="fill:none;fill-rule:evenodd;stroke:context-stroke;stroke-width:0.8;stroke-linecap:round"
           d="M -3.8048674,4.1775838 0.54352094,0.21974226"
           id="path67095" />
        <path
           style="fill:none;fill-rule:evenodd;stroke:context-stroke;stroke-width:0.8;stroke-linecap:round"
           d="M -1.2866832,4.1775838 3.0617053,0.21974226"
           id="path67097" />
        <path
           style="fill:none;fill-rule:evenodd;stroke:context-stroke;stroke-width:0.8;stroke-linecap:round"
           d="M 1.3053582,4.1775838 5.6537466,0.21974226"
           id="path67099" />
      </g>
    </marker>
    <marker
       style="overflow:visible"
       id="Arrow1Lstart"
       refX="0"
       refY="0"
       orient="auto"
       inkscape:stockid="Arrow1Lstart"
       inkscape:isstock="true">
      <path
         transform="matrix(0.8,0,0,0.8,10,0)"
         style="fill:context-stroke;fill-rule:evenodd;stroke:context-stroke;stroke-width:1pt"
         d="M 0,0 5,-5 -12.5,0 5,5 Z"
         id="path67053" />
    </marker>
    <rect
       x="244.2039"
       y="295.0914"
       width="51.917526"
       height="45.191441"
       id="rect21220" />
    <linearGradient
       id="linearGradient850"
       inkscape:swatch="solid">
      <stop
         style="stop-color:#0000ff;stop-opacity:1;"
         offset="0"
         id="stop848" />
    </linearGradient>
    <rect
       x="244.2039"
       y="295.0914"
       width="51.917526"
       height="45.191441"
       id="rect21220-4" />
    <rect
       x="244.2039"
       y="295.0914"
       width="51.917526"
       height="45.191441"
       id="rect21220-5" />
    <rect
       x="244.2039"
       y="295.0914"
       width="51.917526"
       height="45.191441"
       id="rect21220-4-0" />
    <marker
       style="overflow:visible"
       id="Arrow1Lend-1"
       refX="0"
       refY="0"
       orient="auto"
       inkscape:stockid="Arrow1Lend"
       inkscape:isstock="true">
      <path
         transform="matrix(-0.8,0,0,-0.8,-10,0)"
         style="fill:context-stroke;fill-rule:evenodd;stroke:context-stroke;stroke-width:1pt"
         d="M 0,0 5,-5 -12.5,0 5,5 Z"
         id="path67056-9" />
    </marker>
    <rect
       x="244.2039"
       y="295.0914"
       width="51.917526"
       height="45.191441"
       id="rect21220-5-0" />
    <rect
       x="244.2039"
       y="295.0914"
       width="51.917526"
       height="45.191441"
       id="rect21220-4-0-6" />
    <rect
       x="244.2039"
       y="295.0914"
       width="51.917526"
       height="45.191441"
       id="rect21220-4-0-6-0" />
    <rect
       x="244.2039"
       y="295.0914"
       width="51.917526"
       height="45.191441"
       id="rect21220-4-0-6-0-8" />
    <rect
       x="244.2039"
       y="295.0914"
       width="51.917526"
       height="45.191441"
       id="rect21220-5-0-3" />
    <rect
       x="244.2039"
       y="295.0914"
       width="51.917526"
       height="45.191441"
       id="rect21220-4-0-6-3" />
    <marker
       style="overflow:visible"
       id="Arrow1Lend-3"
       refX="0"
       refY="0"
       orient="auto"
       inkscape:stockid="Arrow1Lend"
       inkscape:isstock="true">
      <path
         transform="matrix(-0.8,0,0,-0.8,-10,0)"
         style="fill:context-stroke;fill-rule:evenodd;stroke:context-stroke;stroke-width:1pt"
         d="M 0,0 5,-5 -12.5,0 5,5 Z"
         id="path67056-8" />
    </marker>
    <marker
       style="overflow:visible"
       id="marker69623-9"
       refX="0"
       refY="0"
       orient="auto"
       inkscape:stockid="Arrow1Lstart"
       inkscape:isstock="true">
      <path
         transform="matrix(0.8,0,0,0.8,10,0)"
         style="fill:context-stroke;fill-rule:evenodd;stroke:context-stroke;stroke-width:1pt"
         d="M 0,0 5,-5 -12.5,0 5,5 Z"
         id="path69621-1" />
    </marker>
    <marker
       style="overflow:visible"
       id="Arrow1Lend-2"
       refX="0"
       refY="0"
       orient="auto"
       inkscape:stockid="Arrow1Lend"
       inkscape:isstock="true">
      <path
         transform="matrix(-0.8,0,0,-0.8,-10,0)"
         style="fill:context-stroke;fill-rule:evenodd;stroke:context-stroke;stroke-width:1pt"
         d="M 0,0 5,-5 -12.5,0 5,5 Z"
         id="path67056-91" />
    </marker>
    <marker
       style="overflow:visible"
       id="marker69623-7"
       refX="0"
       refY="0"
       orient="auto"
       inkscape:stockid="Arrow1Lstart"
       inkscape:isstock="true">
      <path
         transform="matrix(0.8,0,0,0.8,10,0)"
         style="fill:context-stroke;fill-rule:evenodd;stroke:context-stroke;stroke-width:1pt"
         d="M 0,0 5,-5 -12.5,0 5,5 Z"
         id="path69621-19" />
    </marker>
    <marker
       style="overflow:visible"
       id="Arrow1Lend-7"
       refX="0"
       refY="0"
       orient="auto"
       inkscape:stockid="Arrow1Lend"
       inkscape:isstock="true">
      <path
         transform="matrix(-0.8,0,0,-0.8,-10,0)"
         style="fill:context-stroke;fill-rule:evenodd;stroke:context-stroke;stroke-width:1pt"
         d="M 0,0 5,-5 -12.5,0 5,5 Z"
         id="path67056-5" />
    </marker>
    <marker
       style="overflow:visible"
       id="Arrow1Lend-4"
       refX="0"
       refY="0"
       orient="auto"
       inkscape:stockid="Arrow1Lend"
       inkscape:isstock="true">
      <path
         transform="matrix(-0.8,0,0,-0.8,-10,0)"
         style="fill:context-stroke;fill-rule:evenodd;stroke:context-stroke;stroke-width:1pt"
         d="M 0,0 5,-5 -12.5,0 5,5 Z"
         id="path67056-94" />
    </marker>
    <marker
       style="overflow:visible"
       id="Arrow1Lend-47"
       refX="0"
       refY="0"
       orient="auto"
       inkscape:stockid="Arrow1Lend"
       inkscape:isstock="true">
      <path
         transform="matrix(-0.8,0,0,-0.8,-10,0)"
         style="fill:context-stroke;fill-rule:evenodd;stroke:context-stroke;stroke-width:1pt"
         d="M 0,0 5,-5 -12.5,0 5,5 Z"
         id="path67056-4" />
    </marker>
    <marker
       style="overflow:visible"
       id="Arrow1Lend-4-6"
       refX="0"
       refY="0"
       orient="auto"
       inkscape:stockid="Arrow1Lend"
       inkscape:isstock="true">
      <path
         transform="matrix(-0.8,0,0,-0.8,-10,0)"
         style="fill:context-stroke;fill-rule:evenodd;stroke:context-stroke;stroke-width:1pt"
         d="M 0,0 5,-5 -12.5,0 5,5 Z"
         id="path67056-94-3" />
    </marker>
    <marker
       style="overflow:visible"
       id="Arrow1Lend-27"
       refX="0"
       refY="0"
       orient="auto"
       inkscape:stockid="Arrow1Lend"
       inkscape:isstock="true">
      <path
         transform="matrix(-0.8,0,0,-0.8,-10,0)"
         style="fill:context-stroke;fill-rule:evenodd;stroke:context-stroke;stroke-width:1pt"
         d="M 0,0 5,-5 -12.5,0 5,5 Z"
         id="path67056-6" />
    </marker>
    <marker
       style="overflow:visible"
       id="Arrow1Lend-4-3"
       refX="0"
       refY="0"
       orient="auto"
       inkscape:stockid="Arrow1Lend"
       inkscape:isstock="true">
      <path
         transform="matrix(-0.8,0,0,-0.8,-10,0)"
         style="fill:context-stroke;fill-rule:evenodd;stroke:context-stroke;stroke-width:1pt"
         d="M 0,0 5,-5 -12.5,0 5,5 Z"
         id="path67056-94-0" />
    </marker>
    <rect
       x="244.2039"
       y="295.0914"
       width="51.917526"
       height="45.191441"
       id="rect21220-4-0-6-0-6" />
    <rect
       x="244.2039"
       y="295.0914"
       width="51.917526"
       height="45.191441"
       id="rect21220-4-0-6-0-4" />
  </defs>
  <g
     inkscape:label="Layer 1"
     inkscape:groupmode="layer"
     id="layer1">
    <text
       xml:space="preserve"
       style="font-style:normal;font-weight:normal;font-size:10.5833px;line-height:1.25;font-family:sans-serif;fill:#000000;fill-opacity:1;stroke:none;stroke-width:0.264583"
       x="33.123943"
       y="60.208397"
       id="text10598"><tspan
         sodipodi:role="line"
         id="tspan10596"
         style="stroke-width:0.264583"
         x="33.123943"
         y="60.208397" /></text>
    <g
       id="g145436"
       transform="translate(16.780618,-0.61872916)">
      <g
         id="g66532-5"
         transform="translate(110.1094,11.837857)">
        <g
           id="g66508-8">
          <rect
             style="fill:none;fill-opacity:1;fill-rule:evenodd;stroke:#000000;stroke-width:0.2325;stroke-miterlimit:4;stroke-dasharray:none;stroke-opacity:1"
             id="rect3112-7"
             width="13.0625"
             height="15.677767"
             x="25.608351"
             y="52.199368" />
          <text
             xml:space="preserve"
             transform="matrix(0.26458333,0,0,0.26458333,-38.652418,-21.256473)"
             id="text21218-0"
             style="font-style:normal;font-weight:normal;font-size:18.6667px;line-height:1.25;font-family:sans-serif;white-space:pre;shape-inside:url(#rect21220-5);fill:#000000;fill-opacity:1;stroke:none"><tspan
               x="244.20312"
               y="312.07616"
               id="tspan1239"><tspan
                 style="font-family:'Fira Code';-inkscape-font-specification:'Fira Code'"
                 id="tspan1237">prev</tspan></tspan></text>
        </g>
        <g
           id="g66513-5">
          <rect
             style="fill:none;fill-opacity:1;fill-rule:evenodd;stroke:#000000;stroke-width:0.2325;stroke-miterlimit:4;stroke-dasharray:none;stroke-opacity:1"
             id="rect3114-4"
             width="13.0625"
             height="15.677767"
             x="38.670853"
             y="52.199368" />
          <text
             xml:space="preserve"
             transform="matrix(0.26458333,0,0,0.26458333,-25.536728,-21.256473)"
             id="text21218-8-1"
             style="font-style:normal;font-weight:normal;font-size:18.6667px;line-height:1.25;font-family:sans-serif;white-space:pre;shape-inside:url(#rect21220-4-0);fill:#000000;fill-opacity:1;stroke:none"><tspan
               x="244.20312"
               y="312.07616"
               id="tspan1243"><tspan
                 style="font-family:'Fira Code';-inkscape-font-specification:'Fira Code'"
                 id="tspan1241">next</tspan></tspan></text>
        </g>
        <g
           id="g66518-6">
          <rect
             style="fill:none;fill-opacity:1;fill-rule:evenodd;stroke:#000000;stroke-width:0.522511;stroke-miterlimit:4;stroke-dasharray:none;stroke-opacity:1"
             id="rect31-0"
             width="26.067436"
             height="39.678646"
             x="25.637159"
             y="52.228123" />
          <text
             xml:space="preserve"
             style="font-style:normal;font-variant:normal;font-weight:normal;font-stretch:normal;font-size:6.35px;line-height:1.25;font-family:'Fira Code';-inkscape-font-specification:'Fira Code';fill:#000000;fill-opacity:1;stroke:none;stroke-width:0.264583"
             x="30.892956"
             y="81.964912"
             id="text58363-2"><tspan
               sodipodi:role="line"
               id="tspan58361-4"
               style="font-style:normal;font-variant:normal;font-weight:normal;font-stretch:normal;font-size:6.35px;font-family:'Fira Code';-inkscape-font-specification:'Fira Code';stroke-width:0.264583"
               x="30.892956"
               y="81.964912">data</tspan></text>
        </g>
      </g>
      <g
         id="g84256"
         transform="translate(55.316394,13.997778)">
        <g
           id="g66508-8-1"
           transform="translate(104.53959,-2.1599212)">
          <rect
             style="fill:none;fill-opacity:1;fill-rule:evenodd;stroke:#000000;stroke-width:0.2325;stroke-miterlimit:4;stroke-dasharray:none;stroke-opacity:1"
             id="rect3112-7-8"
             width="13.0625"
             height="15.677767"
             x="25.608351"
             y="52.199368" />
          <text
             xml:space="preserve"
             transform="matrix(0.26458333,0,0,0.26458333,-38.652418,-21.256473)"
             id="text21218-0-3"
             style="font-style:normal;font-weight:normal;font-size:18.6667px;line-height:1.25;font-family:sans-serif;white-space:pre;shape-inside:url(#rect21220-5-0);fill:#000000;fill-opacity:1;stroke:none"><tspan
               x="244.20312"
               y="312.07616"
               id="tspan1247"><tspan
                 style="font-family:'Fira Code';-inkscape-font-specification:'Fira Code'"
                 id="tspan1245">prev</tspan></tspan></text>
        </g>
        <g
           id="g66513-5-8"
           transform="translate(104.53959,-2.1599212)">
          <rect
             style="fill:none;fill-opacity:1;fill-rule:evenodd;stroke:#000000;stroke-width:0.2325;stroke-miterlimit:4;stroke-dasharray:none;stroke-opacity:1"
             id="rect3114-4-8"
             width="13.0625"
             height="15.677767"
             x="38.670853"
             y="52.199368" />
          <text
             xml:space="preserve"
             transform="matrix(0.26458333,0,0,0.26458333,-25.536728,-21.256473)"
             id="text21218-8-1-4"
             style="font-style:normal;font-weight:normal;font-size:18.6667px;line-height:1.25;font-family:sans-serif;white-space:pre;shape-inside:url(#rect21220-4-0-6);fill:#000000;fill-opacity:1;stroke:none"><tspan
               x="244.20312"
               y="312.07616"
               id="tspan1251"><tspan
                 style="font-family:'Fira Code';-inkscape-font-specification:'Fira Code'"
                 id="tspan1249">next</tspan></tspan></text>
        </g>
        <g
           id="g66518-6-1"
           transform="translate(104.53959,-2.1599212)">
          <rect
             style="fill:none;fill-opacity:1;fill-rule:evenodd;stroke:#000000;stroke-width:0.522511;stroke-miterlimit:4;stroke-dasharray:none;stroke-opacity:1"
             id="rect31-0-3"
             width="26.067436"
             height="39.678646"
             x="25.637159"
             y="52.228123" />
          <text
             xml:space="preserve"
             style="font-style:normal;font-variant:normal;font-weight:normal;font-stretch:normal;font-size:6.35px;line-height:1.25;font-family:'Fira Code';-inkscape-font-specification:'Fira Code';fill:#000000;fill-opacity:1;stroke:none;stroke-width:0.264583"
             x="30.892956"
             y="81.964912"
             id="text58363-2-2"><tspan
               sodipodi:role="line"
               id="tspan58361-4-6"
               style="font-style:normal;font-variant:normal;font-weight:normal;font-stretch:normal;font-size:6.35px;font-family:'Fira Code';-inkscape-font-specification:'Fira Code';stroke-width:0.264583"
               x="30.892956"
               y="81.964912">data</tspan></text>
        </g>
      </g>
      <g
         id="g101860"
         transform="translate(41.849435,0.19121814)">
        <g
           id="g66513"
           transform="translate(18.513405,11.646639)">
          <rect
             style="fill:none;fill-opacity:1;fill-rule:evenodd;stroke:#000000;stroke-width:0.2325;stroke-miterlimit:4;stroke-dasharray:none;stroke-opacity:1"
             id="rect3114"
             width="13.0625"
             height="15.677767"
             x="38.670853"
             y="52.199368" />
          <text
             xml:space="preserve"
             transform="matrix(0.26458333,0,0,0.26458333,-25.536728,-21.256473)"
             id="text21218-8"
             style="font-style:normal;font-weight:normal;font-size:18.6667px;line-height:1.25;font-family:sans-serif;white-space:pre;shape-inside:url(#rect21220-4);fill:#000000;fill-opacity:1;stroke:none"><tspan
               x="244.20312"
               y="312.07616"
               id="tspan1255"><tspan
                 style="font-family:'Fira Code';-inkscape-font-specification:'Fira Code'"
                 id="tspan1253">next</tspan></tspan></text>
        </g>
        <g
           id="g66518"
           transform="translate(18.513405,11.646639)">
          <rect
             style="fill:none;fill-opacity:1;fill-rule:evenodd;stroke:#000000;stroke-width:0.522511;stroke-miterlimit:4;stroke-dasharray:none;stroke-opacity:1"
             id="rect31"
             width="26.067436"
             height="39.678646"
             x="25.637159"
             y="52.228123" />
          <text
             xml:space="preserve"
             style="font-style:normal;font-variant:normal;font-weight:normal;font-stretch:normal;font-size:6.35px;line-height:1.25;font-family:'Fira Code';-inkscape-font-specification:'Fira Code';fill:#000000;fill-opacity:1;stroke:none;stroke-width:0.264583"
             x="30.892956"
             y="81.964912"
             id="text58363"><tspan
               sodipodi:role="line"
               id="tspan58361"
               style="font-style:normal;font-variant:normal;font-weight:normal;font-stretch:normal;font-size:6.35px;font-family:'Fira Code';-inkscape-font-specification:'Fira Code';stroke-width:0.264583"
               x="30.892956"
               y="81.964912">data</tspan></text>
        </g>
        <g
           id="g101834">
          <g
             id="g66508"
             transform="translate(18.513405,11.646639)">
            <rect
               style="fill:none;fill-opacity:1;fill-rule:evenodd;stroke:#000000;stroke-width:0.2325;stroke-miterlimit:4;stroke-dasharray:none;stroke-opacity:1"
               id="rect3112"
               width="13.0625"
               height="15.677767"
               x="25.608351"
               y="52.199368" />
            <text
               xml:space="preserve"
               transform="matrix(0.26458333,0,0,0.26458333,-38.652418,-21.256473)"
               id="text21218"
               style="font-style:normal;font-weight:normal;font-size:18.6667px;line-height:1.25;font-family:sans-serif;white-space:pre;shape-inside:url(#rect21220);fill:#000000;fill-opacity:1;stroke:none"><tspan
                 x="244.20312"
                 y="312.07616"
                 id="tspan1259"><tspan
                   style="font-family:'Fira Code';-inkscape-font-specification:'Fira Code'"
                   id="tspan1257">prev</tspan></tspan></text>
          </g>
          <text
             xml:space="preserve"
             style="font-style:normal;font-variant:normal;font-weight:normal;font-stretch:normal;font-size:4.93889px;line-height:1.25;font-family:'Fira Code';-inkscape-font-specification:'Fira Code';fill:#000000;fill-opacity:1;stroke:none;stroke-width:0.264583"
             x="44.523727"
             y="77.914062"
             id="text97015"><tspan
               sodipodi:role="line"
               id="tspan97013"
               style="font-style:normal;font-variant:normal;font-weight:normal;font-stretch:normal;font-size:4.93889px;font-family:'Fira Code';-inkscape-font-specification:'Fira Code';stroke-width:0.264583"
               x="44.523727"
               y="77.914062">NULL</tspan></text>
        </g>
      </g>
      <g
         id="g101879"
         transform="translate(41.849435,0.19121814)">
        <g
           id="g66508-8-1-9"
           transform="translate(167.75311,11.646639)">
          <rect
             style="fill:none;fill-opacity:1;fill-rule:evenodd;stroke:#000000;stroke-width:0.2325;stroke-miterlimit:4;stroke-dasharray:none;stroke-opacity:1"
             id="rect3112-7-8-1"
             width="13.0625"
             height="15.677767"
             x="25.608351"
             y="52.199368" />
          <text
             xml:space="preserve"
             transform="matrix(0.26458333,0,0,0.26458333,-38.652418,-21.256473)"
             id="text21218-0-3-5"
             style="font-style:normal;font-weight:normal;font-size:18.6667px;line-height:1.25;font-family:sans-serif;white-space:pre;shape-inside:url(#rect21220-5-0-3);fill:#000000;fill-opacity:1;stroke:none"><tspan
               x="244.20312"
               y="312.07616"
               id="tspan1263"><tspan
                 style="font-family:'Fira Code';-inkscape-font-specification:'Fira Code'"
                 id="tspan1261">prev</tspan></tspan></text>
        </g>
        <g
           id="g66518-6-1-6"
           transform="translate(167.75311,11.646639)">
          <rect
             style="fill:none;fill-opacity:1;fill-rule:evenodd;stroke:#000000;stroke-width:0.522511;stroke-miterlimit:4;stroke-dasharray:none;stroke-opacity:1"
             id="rect31-0-3-7"
             width="26.067436"
             height="39.678646"
             x="25.637159"
             y="52.228123" />
          <text
             xml:space="preserve"
             style="font-style:normal;font-variant:normal;font-weight:normal;font-stretch:normal;font-size:6.35px;line-height:1.25;font-family:'Fira Code';-inkscape-font-specification:'Fira Code';fill:#000000;fill-opacity:1;stroke:none;stroke-width:0.264583"
             x="30.892956"
             y="81.964912"
             id="text58363-2-2-7"><tspan
               sodipodi:role="line"
               id="tspan58361-4-6-6"
               style="font-style:normal;font-variant:normal;font-weight:normal;font-stretch:normal;font-size:6.35px;font-family:'Fira Code';-inkscape-font-specification:'Fira Code';stroke-width:0.264583"
               x="30.892956"
               y="81.964912">data</tspan></text>
        </g>
        <g
           id="g101843">
          <g
             id="g66513-5-8-3"
             transform="translate(167.75311,11.646639)">
            <rect
               style="fill:none;fill-opacity:1;fill-rule:evenodd;stroke:#000000;stroke-width:0.2325;stroke-miterlimit:4;stroke-dasharray:none;stroke-opacity:1"
               id="rect3114-4-8-6"
               width="13.0625"
               height="15.677767"
               x="38.670853"
               y="52.199368" />
            <text
               xml:space="preserve"
               transform="matrix(0.26458333,0,0,0.26458333,-25.536728,-21.256473)"
               id="text21218-8-1-4-2"
               style="font-style:normal;font-weight:normal;font-size:18.6667px;line-height:1.25;font-family:sans-serif;white-space:pre;shape-inside:url(#rect21220-4-0-6-3);fill:#000000;fill-opacity:1;stroke:none"><tspan
                 x="244.20312"
                 y="312.07616"
                 id="tspan1267"><tspan
                   style="font-family:'Fira Code';-inkscape-font-specification:'Fira Code'"
                   id="tspan1265">next</tspan></tspan></text>
          </g>
          <text
             xml:space="preserve"
             style="font-style:normal;font-variant:normal;font-weight:normal;font-stretch:normal;font-size:4.93889px;line-height:1.25;font-family:'Fira Code';-inkscape-font-specification:'Fira Code';fill:#000000;fill-opacity:1;stroke:none;stroke-width:0.264583"
             x="206.82593"
             y="78.007896"
             id="text97015-6"><tspan
               sodipodi:role="line"
               id="tspan97013-5"
               style="font-style:normal;font-variant:normal;font-weight:normal;font-stretch:normal;font-size:4.93889px;font-family:'Fira Code';-inkscape-font-specification:'Fira Code';stroke-width:0.264583"
               x="206.82593"
               y="78.007896">NULL</tspan></text>
        </g>
      </g>
      <g
         id="g103159">
        <path
           style="fill:none;stroke:#000000;stroke-width:0.264583px;stroke-linecap:butt;stroke-linejoin:miter;stroke-opacity:1;marker-end:url(#Arrow1Lend)"
           d="m 112.09895,69.005065 c 8.02618,-6.270642 15.95967,-6.121324 23.39936,0"
           id="path102519"
           sodipodi:nodetypes="cc" />
        <path
           style="fill:none;stroke:#000000;stroke-width:0.264583px;stroke-linecap:butt;stroke-linejoin:miter;stroke-opacity:1;marker-end:url(#Arrow1Lend-4)"
           d="m 135.81351,74.936642 c -8.02618,6.270642 -15.95967,6.121324 -23.39936,0"
           id="path102519-8"
           sodipodi:nodetypes="cc" />
      </g>
      <g
         id="g103163"
         transform="translate(21.669605,27.374045)">
        <path
           style="fill:none;stroke:#000000;stroke-width:0.264583px;stroke-linecap:butt;stroke-linejoin:miter;stroke-opacity:1;marker-end:url(#Arrow1Lend-47)"
           d="m 140.08017,41.63102 c 8.02618,-6.270642 15.95967,-6.121324 23.39936,0"
           id="path102519-3"
           sodipodi:nodetypes="cc" />
        <path
           style="fill:none;stroke:#000000;stroke-width:0.264583px;stroke-linecap:butt;stroke-linejoin:miter;stroke-opacity:1;marker-end:url(#Arrow1Lend-4-6)"
           d="m 163.79473,47.562597 c -8.02617,6.270642 -15.95966,6.121324 -23.39936,0"
           id="path102519-8-6"
           sodipodi:nodetypes="cc" />
      </g>
      <g
         id="g103167"
         transform="translate(34.612226,22.661873)">
        <path
           style="fill:none;stroke:#000000;stroke-width:0.264583px;stroke-linecap:butt;stroke-linejoin:miter;stroke-opacity:1;marker-end:url(#Arrow1Lend-27)"
           d="m 177.19931,46.343192 c 8.02618,-6.270642 15.95967,-6.121324 23.39936,0"
           id="path102519-1"
           sodipodi:nodetypes="cc" />
        <path
           style="fill:none;stroke:#000000;stroke-width:0.264583px;stroke-linecap:butt;stroke-linejoin:miter;stroke-opacity:1;marker-end:url(#Arrow1Lend-4-3)"
           d="m 200.91387,52.274769 c -8.02618,6.270642 -15.95967,6.121324 -23.39936,0"
           id="path102519-8-3"
           sodipodi:nodetypes="cc" />
      </g>
      <path
         style="fill:none;stroke:#000000;stroke-width:0.259093px;stroke-linecap:butt;stroke-linejoin:miter;stroke-opacity:1;marker-end:url(#Arrow1Lend)"
         d="M 32.962434,24.598567 C 144.87516,24.232826 224.23868,34.823168 248.27339,64.037225"
         id="path103202"
         sodipodi:nodetypes="cc" />
      <path
         style="fill:none;stroke:#000000;stroke-width:0.243982px;stroke-linecap:butt;stroke-linejoin:miter;stroke-opacity:1;marker-end:url(#Arrow1Lend)"
         d="m 33.02861,40.276121 c 13.220321,0.21816 17.752389,11.579092 29.185097,20.202408 5.493995,4.14394 11.592349,7.022908 23.617189,8.591312"
         id="path104422"
         sodipodi:nodetypes="csc" />
      <g
         id="g145336">
        <rect
           style="fill:none;fill-opacity:1;fill-rule:evenodd;stroke:#000000;stroke-width:0.358471;stroke-miterlimit:4;stroke-dasharray:none;stroke-opacity:1"
           id="rect3114-4-8-8"
           width="31.051876"
           height="15.677767"
           x="2.0584285"
           y="33.088577" />
        <rect
           style="fill:none;fill-opacity:1;fill-rule:evenodd;stroke:#000000;stroke-width:0.268657;stroke-miterlimit:4;stroke-dasharray:none;stroke-opacity:1"
           id="rect3114-4-8-8-4"
           width="31.159342"
           height="8.7754679"
           x="2.0046957"
           y="48.728809" />
        <rect
           style="fill:none;fill-opacity:1;fill-rule:evenodd;stroke:#000000;stroke-width:0.270917;stroke-miterlimit:4;stroke-dasharray:none;stroke-opacity:1"
           id="rect3114-4-8-8-5"
           width="31.156637"
           height="8.9245272"
           x="2.006048"
           y="57.504276" />
        <rect
           style="fill:none;fill-opacity:1;fill-rule:evenodd;stroke:#000000;stroke-width:0.270917;stroke-miterlimit:4;stroke-dasharray:none;stroke-opacity:1"
           id="rect3114-4-8-8-1"
           width="31.156637"
           height="8.9245272"
           x="2.006048"
           y="75.353333" />
        <rect
           style="fill:none;fill-opacity:1;fill-rule:evenodd;stroke:#000000;stroke-width:0.270917;stroke-miterlimit:4;stroke-dasharray:none;stroke-opacity:1"
           id="rect3114-4-8-8-7"
           width="31.156637"
           height="8.9245272"
           x="2.006048"
           y="66.428802" />
        <rect
           style="fill:none;fill-opacity:1;fill-rule:evenodd;stroke:#000000;stroke-width:0.358471;stroke-miterlimit:4;stroke-dasharray:none;stroke-opacity:1"
           id="rect3114-4-8-8-0"
           width="31.051876"
           height="15.677767"
           x="2.0584285"
           y="17.410812" />
        <text
           xml:space="preserve"
           transform="matrix(0.26458333,0,0,0.26458333,-53.106342,-39.602529)"
           id="text21218-8-1-4-5"
           style="font-style:normal;font-variant:normal;font-weight:normal;font-stretch:normal;font-size:18.6667px;line-height:1.25;font-family:'Fira Code';-inkscape-font-specification:'Fira Code';white-space:pre;shape-inside:url(#rect21220-4-0-6-0);fill:#000000;fill-opacity:1;stroke:none"><tspan
             x="244.20312"
             y="311.42516"
             id="tspan1269">head</tspan></text>
        <text
           xml:space="preserve"
           transform="matrix(0.26458333,0,0,0.26458333,-53.063285,-55.219507)"
           id="text21218-8-1-4-5-2"
           style="font-style:normal;font-variant:normal;font-weight:normal;font-stretch:normal;font-size:18.6667px;line-height:1.25;font-family:'Fira Code';-inkscape-font-specification:'Fira Code';white-space:pre;shape-inside:url(#rect21220-4-0-6-0-6);fill:#000000;fill-opacity:1;stroke:none"><tspan
             x="244.20312"
             y="311.42516"
             id="tspan1271">tail</tspan></text>
        <text
           xml:space="preserve"
           style="font-style:normal;font-variant:normal;font-weight:normal;font-stretch:normal;font-size:4.23333px;line-height:1.25;font-family:'Fira Code';-inkscape-font-specification:'Fira Code';fill:#000000;fill-opacity:1;stroke:none;stroke-width:0.264583"
           x="4.5175171"
           y="54.282337"
           id="text121300"><tspan
             sodipodi:role="line"
             id="tspan121298"
             style="font-style:normal;font-variant:normal;font-weight:normal;font-stretch:normal;font-size:4.23333px;font-family:'Fira Code';-inkscape-font-specification:'Fira Code';stroke-width:0.264583"
             x="4.5175171"
             y="54.282337">push_front</tspan></text>
        <text
           xml:space="preserve"
           style="font-style:normal;font-variant:normal;font-weight:normal;font-stretch:normal;font-size:4.23333px;line-height:1.25;font-family:'Fira Code';-inkscape-font-specification:'Fira Code';fill:#000000;fill-opacity:1;stroke:none;stroke-width:0.264583"
           x="4.5175171"
           y="63.132332"
           id="text121300-8"><tspan
             sodipodi:role="line"
             id="tspan121298-0"
             style="font-style:normal;font-variant:normal;font-weight:normal;font-stretch:normal;font-size:4.23333px;font-family:'Fira Code';-inkscape-font-specification:'Fira Code';stroke-width:0.264583"
             x="4.5175171"
             y="63.132332">push_back</tspan></text>
        <text
           xml:space="preserve"
           style="font-style:normal;font-variant:normal;font-weight:normal;font-stretch:normal;font-size:4.23333px;line-height:1.25;font-family:'Fira Code';-inkscape-font-specification:'Fira Code';fill:#000000;fill-opacity:1;stroke:none;stroke-width:0.264583"
           x="4.5175171"
           y="72.056862"
           id="text121300-3"><tspan
             sodipodi:role="line"
             id="tspan121298-4"
             style="font-style:normal;font-variant:normal;font-weight:normal;font-stretch:normal;font-size:4.23333px;font-family:'Fira Code';-inkscape-font-specification:'Fira Code';stroke-width:0.264583"
             x="4.5175171"
             y="72.056862">pop_front</tspan></text>
        <text
           xml:space="preserve"
           style="font-style:normal;font-variant:normal;font-weight:normal;font-stretch:normal;font-size:4.23333px;line-height:1.25;font-family:'Fira Code';-inkscape-font-specification:'Fira Code';fill:#000000;fill-opacity:1;stroke:none;stroke-width:0.264583"
           x="4.5175171"
           y="80.981392"
           id="text121300-1"><tspan
             sodipodi:role="line"
             id="tspan121298-7"
             style="font-style:normal;font-variant:normal;font-weight:normal;font-stretch:normal;font-size:4.23333px;font-family:'Fira Code';-inkscape-font-specification:'Fira Code';stroke-width:0.264583"
             x="4.5175171"
             y="80.981392">pop_back</tspan></text>
        <rect
           style="fill:none;fill-opacity:1;fill-rule:evenodd;stroke:#000000;stroke-width:0.270917;stroke-miterlimit:4;stroke-dasharray:none;stroke-opacity:1"
           id="rect3114-4-8-8-1-2"
           width="31.156637"
           height="8.9245272"
           x="2.006048"
           y="84.277863" />
        <text
           xml:space="preserve"
           style="font-style:normal;font-variant:normal;font-weight:normal;font-stretch:normal;font-size:4.23333px;line-height:1.25;font-family:'Fira Code';-inkscape-font-specification:'Fira Code';fill:#000000;fill-opacity:1;stroke:none;stroke-width:0.264583"
           x="4.9538755"
           y="89.905922"
           id="text121300-1-5"><tspan
             sodipodi:role="line"
             id="tspan121298-7-6"
             style="font-style:normal;font-variant:normal;font-weight:normal;font-stretch:normal;font-size:4.23333px;font-family:'Fira Code';-inkscape-font-specification:'Fira Code';stroke-width:0.264583"
             x="4.9538755"
             y="89.905922">...</tspan></text>
      </g>
    </g>
  </g>
</svg>
